<svg version="1.2" baseProfile="tiny-ps" xmlns="http://www.w3.org/2000/svg" viewBox="0 0 3000 2000" width="3000" height="2000">
	<title>10966-ai</title>
	<style>
		tspan { white-space:pre }
		.s0 { fill: #ebf3fa } 
		.s1 { fill: #dce8ff } 
		.s2 { opacity: .7;fill: #9fbdff } 
		.s3 { fill: #dfebfd } 
		.s4 { opacity: .5;fill: #c5ddff } 
		.s5 { fill: #c2cfff } 
		.s6 { fill: #163560 } 
		.s7 { fill: #ffffff } 
		.s8 { fill: #9fc1f4 } 
		.s9 { fill: #f78e48 } 
		.s10 { fill: #f78248 } 
		.s11 { fill: #1f4777 } 
		.s12 { fill: #e06832 } 
		.s13 { fill: #ffb27d } 
		.s14 { fill: #f1a34f } 
		.s15 { fill: #d86713 } 
		.s16 { fill: #739af0 } 
		.s17 { fill: #5283db } 
		.s18 { fill: #133054 } 
		.s19 { fill: #1c468a } 
		.s20 { fill: #233862 } 
		.s21 { fill: #e8945b } 
		.s22 { fill: #ffe3ca } 
		.s23 { fill: #2e3552 } 
		.s24 { fill: #d7e2ff } 
		.s25 { fill: #2b478b } 
		.s26 { fill: #e58638 } 
		.s27 { fill: #f99746 } 
		.s28 { opacity: .5;fill: #e27727 } 
		.s29 { fill: #355daf } 
		.s30 { fill: #e9f0ff } 
		.s31 { fill: #ff9843 } 
		.s32 { fill: #f2be8f } 
		.s33 { opacity: .5;fill: #eabc92 } 
		.s34 { fill: #aec3ff } 
		.s35 { fill: #94b0ed } 
	</style>
	<g id="‘лой_1">
		<g id="&lt;Group&gt;">
			<path id="&lt;Path&gt;" class="s0" d="m451.21 1832.55c-203.36-208.57-240.28-435.48-110.78-680.74c194.26-367.89 454.92-182.76 442.45-611.03c-12.47-428.27 599.79-464.86 794.63-340.61c194.84 124.25 193.62 273.81 595.95 224.46c402.33-49.35 479.04 363.19 374.31 573.38c-148.61 298.23 412.07 249.23 58.59 835.28l-2155.14-0.74z" />
			<path id="&lt;Path&gt;" class="s1" d="m2340.44 796.16c0 30.44-2.74 60.27-8.01 89.22c-12.65 69.48-39.78 133.9-78.18 190.04c-89.2 130.46-239.18 216.08-409.15 216.08c-202.19 0-376.09-121.12-453.06-294.8c-10.16-22.88-18.63-46.68-25.23-71.24c-11.14-41.21-17.07-84.58-17.07-129.3c0-36.17 3.88-71.46 11.24-105.41c0.07-0.4 0.17-0.77 0.25-1.16c20.58-93.89 67.8-177.78 133.33-243.41c18.58-18.63 38.64-35.78 60.02-51.27c10.18-7.39 20.68-14.41 31.43-21c75.36-46.38 164.09-73.11 259.1-73.11c12.6 0 25.08 0.47 37.43 1.41c17.45 1.29 34.62 3.48 51.49 6.55c71.06 12.87 136.81 40.92 193.84 80.65h0.03c35.53 24.73 67.65 53.99 95.55 86.98c14.65 17.32 28.14 35.65 40.33 54.9c7.59 11.98 14.68 24.29 21.25 36.94c15.79 30.39 28.49 62.64 37.76 96.32c11.51 41.91 17.67 86.06 17.67 131.62z" />
			<path id="&lt;Path&gt;" class="s2" d="m1676.81 574.42c-19.77 31.31 8.25 85.67-51.05 70.84c-59.3-14.83-95.55-21.42-98.84 11.51c-3.31 32.96 44.48 32.96 44.48 67.55c0 34.59-21.42 46.03-54.36 29.6c-32.96-16.43-42.42-40.33-80.72-25.5c-38.3 14.83-60.54 4.94-69.19-24.71c-1.53-5.21-3.66-9.44-6.15-12.97c0.07-0.4 0.17-0.77 0.25-1.16c20.58-93.89 67.8-177.78 133.33-243.41c18.58-18.63 38.64-35.78 60.02-51.27c10.18-7.39 20.68-14.41 31.43-21c15.44 0.57 33.9 6.42 49.64 25.89c34.59 42.85 57.65 21.42 49.42 70.84c-8.25 49.42 4.94 56.02 32.94 54.36c28-1.66 60.96-1.66 64.24 19.77c3.29 21.42-85.67-1.66-105.43 29.65z" />
			<path id="&lt;Path&gt;" class="s2" d="m1930.49 896.46c-23.88 31.3-8.24 57.65-31.3 90.6c-23.06 32.95-52.71-4.12-67.54 9.06c-14.83 13.18 23.89 44.48 21.42 65.07c-2.47 20.59-32.53 20.59-39.95 50.24c-7.41 29.65-25.94 16.06-37.06 35.83c-11.12 19.77 23.47 45.71 17.3 65.48c-6.18 19.77-46.95 9.88-67.95-19.77c-21-29.65-12.35-32.12-24.71-74.13c-12.35-42.01 12.35-63.01 28.42-90.19c16.06-27.18-18.53-18.53-37.06-38.3c-18.53-19.77-3.71-30.89-12.35-56.83c-8.65-25.94-51.48-32.12-52.3-71.66c-0.82-39.53 25.53-29.65 54.36-51.06c28.83-21.41 16.47-31.3 41.18-34.59c24.71-3.29 28 23.06 66.71 32.12c38.71 9.06 25.53 15.65 37.06 46.12c7.69 20.32 26.08 25.81 55.18 16.47c16.47-18.12 72.48-5.77 48.59 25.53z" />
			<path id="&lt;Path&gt;" class="s2" d="m2340.44 796.16c0 30.44-2.74 60.27-8.01 89.22c-12.65 69.48-39.78 133.9-78.18 190.04c-13.1 4.3-26.46 4.2-39.61-1.06c-61.77-24.71-16.06-91.42 8.65-124.78c24.71-33.36-38.3-18.53-84.01-49.42c-45.71-30.89 4.94-113.66-42.01-100.07c-46.95 13.59-103.78 30.89-130.96-14.83c-27.18-45.71 24.71-53.12 1.24-91.42c-23.47-38.3 13.59-60.54 60.54-64.24c46.95-3.71 40.77-37.06 98.84-42.01c58.07-4.94 56.83 69.19 121.07 64.24c42.83-3.29 63.28 0 61.35 9.88c4.62-0.12 9.12 0.84 13.42 2.82c11.51 41.91 17.67 86.06 17.67 131.62z" />
			<path id="&lt;Path&gt;" class="s2" d="m2285.02 568.22c-53.42 25.99-74.87-44.7-120.53-23.45c-46.03 21.42-37.98-19.77-74.2-46.13c-36.25-26.34-108.72 21.42-105.43-19.77c3.29-41.17 57.65-29.65 69.18-62.59c7.69-21.96 29.11-30.19 64.24-24.71c2.99-1.14 6.2-1.88 9.59-2.17c0-0.02 0.01-0.02 0.03 0c35.53 24.73 67.65 53.99 95.55 86.98c14.65 17.32 28.14 35.65 40.33 54.9c7.59 11.98 14.68 24.29 21.25 36.94z" />
			<path id="&lt;Path&gt;" class="s2" d="m1788.41 481.6c-23.47 29.91-44.48-26.2-70.42-55.44c-25.94-29.24-12.35-56.01 22.24-52.32c34.59 3.68 33.77-11.92 78.25 0c29.65 7.95 35.14 25.39 16.47 52.32c-27.59 2.88-23.06 25.53-46.54 55.44z" />
			<path id="&lt;Path&gt;" class="s3" d="m2587.95 1669.23c-15.52-5.2-100.69-61.17-105.59-48.6c-4.89 12.58 41.71 67.47 80.46 78.09c-61.31 43.54-106.64 53.86-135.97 30.93c-44-34.38-39.97-72.64-67.55-93.4c-27.58-20.75-53.75-26.48-44.24-9.41c9.51 17.07 61.94 43.16 72.65 78.04c10.7 34.87 21.83 59.25-27.37 40.39c-49.2-18.86-123.71-74.31-117.96-117.74c0.25-1.89-37.3 14.19-56.59 25.98c-0.01 0.01-0.02 0.02-0.03 0.02c-3.05 2.15-7.51 4.98-13.78 8.65c0 0.01-0.01 0-0.01 0.01c0 0-0.01 0-0.01 0.01c-2.68 1.73-4.86 3.16-6.38 4.17c-0.03 0.02-0.07 0.05-0.1 0.07c-0.02 0-0.03 0.01-0.04 0.03c-2.36 1.69-4.69 3.53-7 5.5l-9.12-5.83c9.4-6.81 17.56-11.77 24.51-14.88h0c51.21-28.54 20.58-167.45 100.23-206.09c37.44-12.73 69.46-15.31 96.04-7.76c-52.27 55.61-72.93 87.95-61.98 97.04c10.95 9.09 37.83-23.99 80.66-99.24c76.79 9.26 126 22.37 147.63 39.33c-75.86 38.44-107.36 60.72-94.51 66.83c12.85 6.11 59.67-9 140.46-45.34c67.35 27.32 94.47 61.91 81.34 103.77c-19.7 62.8-60.22 74.61-75.74 69.41z" />
			<path id="&lt;Path&gt;" class="s3" d="m358.7 1379.82c6.27-55.94 56-82.5 149.2-79.68c76.01 84.49 123.13 126.47 141.37 125.95c18.24-0.52-7.2-42.98-76.32-127.38c34.16-8.7 98.7 1.4 193.63 30.29c11.3 110.49 25.73 163.24 43.28 158.24c17.55-5 10.06-53.66-22.5-145.99c35.11 4.9 71.34 24.51 108.7 58.84c73.47 86.6-34.41 233.77 10.91 293.78l0 0c6.54 7.24 13.56 17.29 21.06 30.15l-13.72 2.11c-1.69-3.51-3.47-6.87-5.37-10.08c0-0.03-0.02-0.04-0.04-0.06c-0.03-0.05-0.06-0.09-0.08-0.14c-1.27-1.98-3.08-4.79-5.33-8.2c0 0-0.01-0.01-0.01-0.01c0-0.01-0.01-0.01-0.01-0.02c-5.46-7.56-9.22-13.19-11.69-17.29c-0.01-0.01-0.02-0.03-0.02-0.04c-16.53-23.83-52.27-62.14-52.96-59.79c-15.73 53.96-131.9 80.45-199.41 77.11c-67.51-3.34-41.83-26.19-11.21-61.58c30.62-35.39 105.67-38.87 125.67-53.97c20-15.11-13.69-21.94-56.8-11.86c-43.11 10.08-58.2 57.07-127.64 74.64c-46.29 11.71-94.15-23.86-143.56-106.71c50.99 7.6 134.11-32.69 134.88-49.99c0.77-17.3-128.18 4.29-149.09 2.36c-20.91-1.93-62.35-36.77-52.95-120.68z" />
			<g id="&lt;Group&gt;">
				<path id="&lt;Path&gt;" class="s4" d="m2287.16 1438.96c24.14-86.11 62.77-151.85 115.89-197.21c10.59-9.04 26.71 0.28 24.28 13.99c-0.04 0.23-0.08 0.46-0.13 0.69c-4.53 23.34-95.47 110.62-140.04 182.53z" />
				<path id="&lt;Path&gt;" class="s4" d="m2273.1 1475.37c61.89-102.69 134.87-172.33 218.95-208.92c7.69-3.35 16.92-0.26 20.55 7.3c2.36 4.92 2.65 12.09-2.47 22.4c-13.65 27.51-156.85 104.97-237.03 179.21z" />
			</g>
			<g id="&lt;Group&gt;">
				<path id="&lt;Path&gt;" class="s4" d="m609.15 1115.01c-0.05-0.23-0.09-0.46-0.13-0.69c-2.43-13.71 13.69-23.03 24.28-13.99c53.12 45.36 91.75 111.1 115.89 197.21c-44.57-71.91-135.51-159.19-140.04-182.53z" />
				<path id="&lt;Path&gt;" class="s4" d="m526.22 1154.73c-5.12-10.32-4.83-17.48-2.47-22.4c3.63-7.56 12.86-10.65 20.55-7.3c84.08 36.58 157.06 106.22 218.95 208.92c-80.19-74.25-223.38-151.7-237.03-179.21z" />
			</g>
			<path id="&lt;Path&gt;" class="s5" d="m1833.19 627.38l-0.39 1129.9c-0.01 37.12-30.11 67.2-67.22 67.19l-590.65-0.2c-37.12-0.01-67.2-30.11-67.19-67.23l0.39-1129.9c0.01-37.11 30.11-67.19 67.23-67.17l590.65 0.2c37.11 0.01 67.19 30.11 67.17 67.22z" />
			<path id="&lt;Compound Path&gt;" fill-rule="evenodd" class="s6" d="m1765.57 1832.91l-590.65-0.2c-41.71-0.01-75.63-33.96-75.62-75.67l0.39-1129.9c0.01-41.71 33.96-75.63 75.67-75.62l590.65 0.2c41.71 0.01 75.63 33.96 75.61 75.67l-0.39 1129.9c-0.01 41.71-33.96 75.63-75.67 75.62zm-590.22-1264.52c-32.41-0.01-58.78 26.34-58.79 58.75l-0.39 1129.9c-0.01 32.41 26.34 58.78 58.75 58.79l590.65 0.2c32.41 0.01 58.78-26.34 58.79-58.75l0.39-1129.9c0.01-32.41-26.34-58.78-58.75-58.79l-590.65-0.2z" />
			<g id="&lt;Group&gt;">
				<path id="&lt;Path&gt;" class="s7" d="m1218.34 667.3l-9.93 7.12l-9.98-7.05c2.21-3.11 5.87-5.17 9.98-5.17c4.09 0 7.72 2.01 9.93 5.1z" />
				<g id="&lt;Group&gt;">
					<path id="&lt;Compound Path&gt;" class="s7" d="m1232.45 657.2l-6.28 4.5c-3.96-5.53-10.44-9.14-17.75-9.14c-7.36 0-13.89 3.65-17.86 9.26l-6.3-4.43c5.35-7.59 14.18-12.55 24.16-12.55c9.88 0 18.65 4.87 24.02 12.36z" />
				</g>
				<g id="&lt;Group&gt;">
					<path id="&lt;Compound Path&gt;" class="s7" d="m1259.26 637.99l-6.25 4.5c-9.95-13.87-26.23-22.93-44.58-22.94c-18.5-0.01-34.89 9.2-44.82 23.24l-6.3-4.43c11.33-16.05 30.01-26.54 51.13-26.53c20.94 0.01 39.49 10.33 50.83 26.16z" />
				</g>
				<g id="&lt;Group&gt;">
					<path id="&lt;Compound Path&gt;" class="s7" d="m1244.67 648.46l-6.25 4.47c-6.74-9.26-17.67-15.31-29.99-15.32c-12.43 0-23.44 6.14-30.16 15.53l-6.3-4.43c8.11-11.39 21.44-18.82 36.46-18.82c14.9 0.01 28.12 7.32 36.24 18.56z" />
				</g>
			</g>
			<g id="&lt;Group&gt;">
				<path id="&lt;Path&gt;" class="s8" d="m1413.72 419.39c-29.09 6.19-52.43 22.77-70.03 49.76c-25.16-26.93-58.96-38.95-101.4-36.05c37.1-7.58 70.01-4.47 98.72 9.33c26.79-17.94 51.03-25.62 72.7-23.03z" />
				<path id="&lt;Path&gt;" class="s8" d="m1275.97 405.44c-22.52 4.65-40.65 17.38-54.38 38.17c-19.34-20.94-45.42-30.39-78.26-28.34c28.73-5.69 54.16-3.14 76.31 7.66c20.8-13.75 39.58-19.58 56.33-17.48z" />
				<path id="&lt;Path&gt;" class="s8" d="m1163.05 390.08c-20.31 5.1-36.31 17.37-48 36.81c-18.4-18.31-42.49-25.89-72.27-22.76c25.91-6.28 49.14-4.94 69.7 4.03c18.39-13.31 35.25-19.34 50.56-18.07z" />
				<path id="&lt;Path&gt;" class="s8" d="m1085.38 361.79c-13.37 4.72-23.39 14-30.04 27.85c-13.56-11.18-30.28-14.78-50.17-10.79c17.08-5.87 32.83-6.43 47.26-1.68c11.56-10.14 22.55-15.26 32.96-15.38z" />
				<path id="&lt;Path&gt;" class="s8" d="m1301.17 287.33c-13.6 4.02-24.09 12.77-31.46 26.25c-12.96-11.88-29.47-16.34-49.54-13.39c17.36-4.97 33.12-4.71 47.28 0.79c12.08-9.52 23.31-14.06 33.71-13.64z" />
				<path id="&lt;Path&gt;" class="s8" d="m1422.97 359.33c-20.29 3.91-36.72 15.12-49.3 33.63c-17.12-19.04-40.44-27.84-69.95-26.39c25.87-4.77 48.69-2.17 68.45 7.79c18.85-12.1 35.78-17.12 50.81-15.03z" />
				<path id="&lt;Path&gt;" class="s8" d="m1377.25 312.32c-18.61 4.32-33.4 15.25-44.38 32.79c-16.48-17-38.33-24.31-65.55-21.94c23.73-5.31 44.9-3.71 63.51 4.81c16.99-11.84 32.46-17.06 46.41-15.66z" />
			</g>
			<g id="&lt;Group&gt;">
				<path id="&lt;Compound Path&gt;" fill-rule="evenodd" class="s9" d="m2190.14 661.93c46.08 0 83.43 40.17 83.43 89.72c0 33.03-27.81 75.94-83.43 128.74c-55.62-52.8-83.43-95.71-83.43-128.74c0-49.54 37.35-89.72 83.43-89.72zm0 133.62c27.21 0 49.16-21.95 49.16-49.16c0-27.08-21.95-49.16-49.16-49.16c-27.08 0-49.16 22.08-49.16 49.16c0 27.21 22.08 49.16 49.16 49.16z" />
			</g>
			<g id="&lt;Group&gt;">
				<path id="&lt;Compound Path&gt;" fill-rule="evenodd" class="s9" d="m1901.96 350.13c44.26 0 80.14 38.59 80.14 86.18c0 31.73-26.71 72.94-80.14 123.66c-53.42-50.71-80.14-91.93-80.14-123.66c0-47.59 35.88-86.18 80.14-86.18zm0 128.34c26.14 0 47.22-21.08 47.22-47.22c0-26.02-21.08-47.22-47.22-47.22c-26.01 0-47.22 21.2-47.22 47.22c0 26.14 21.21 47.22 47.22 47.22z" />
			</g>
			<g id="&lt;Group&gt;">
				<path id="&lt;Path&gt;" class="s6" d="m2320.91 1800.26h-197.68c-18.95 0-34.32-15.37-34.32-34.32v-4.49h263.74v7.07c0 17.53-14.21 31.74-31.73 31.74z" />
				<path id="&lt;Path&gt;" class="s10" d="m2361.69 1435.66v314.75c0 3.79-0.42 7.49-1.23 11.05h-36.92c-5.73 0-11.08 1.67-15.58 4.55c-2.79 1.77-5.24 4.01-7.26 6.61c-3.85 4.92-6.13 11.11-6.13 17.84v9.81h-144.63v-9.81c0-10.12-5.17-19.03-13.03-24.22c-2.22-1.47-4.66-2.64-7.26-3.45c-2.74-0.86-5.66-1.32-8.68-1.32h-39.9c-0.8-3.56-1.23-7.26-1.23-11.05v-314.75c0-27.54 22.3-49.85 49.81-49.85h182.21c27.51 0 49.81 22.32 49.81 49.85z" />
				<g id="&lt;Group&gt;">
					<path id="&lt;Path&gt;" class="s6" d="m2273.84 1385.63c-65.27-25.73-110.8-0.41-111.25-0.15l-2.35-4.1c0.49-0.28 12.12-6.88 32.23-10.22c18.47-3.07 47.88-3.82 83.11 10.07l-1.73 4.4z" />
				</g>
				<path id="&lt;Path&gt;" class="s6" d="m2125.81 1811.69h-19.09v-26h19.09v26z" />
				<path id="&lt;Path&gt;" class="s11" d="m2102.69 1815.63c0-7.51 6.08-13.59 13.58-13.59c7.5 0 13.58 6.09 13.58 13.59c0 7.51-6.08 13.59-13.58 13.59c-7.5 0-13.58-6.09-13.58-13.59z" />
				<path id="&lt;Path&gt;" class="s6" d="m2108.02 1815.63c0-4.56 3.69-8.25 8.24-8.25c4.55 0 8.25 3.69 8.25 8.25c0 4.56-3.69 8.25-8.25 8.25c-4.55 0-8.24-3.69-8.24-8.25z" />
				<path id="&lt;Path&gt;" class="s6" d="m2322.14 1811.69h-19.09v-26h19.09v26z" />
				<path id="&lt;Path&gt;" class="s11" d="m2299.01 1815.63c0-7.51 6.08-13.59 13.58-13.59c7.5 0 13.58 6.09 13.58 13.59c0 7.51-6.08 13.59-13.58 13.59c-7.5 0-13.58-6.09-13.58-13.59z" />
				<path id="&lt;Path&gt;" class="s6" d="m2304.35 1815.63c0-4.56 3.69-8.25 8.24-8.25c4.55 0 8.25 3.69 8.25 8.25c0 4.56-3.69 8.25-8.25 8.25c-4.55 0-8.24-3.69-8.24-8.25z" />
				<path id="&lt;Path&gt;" class="s12" d="m2136.93 1385.8v380.43c-2.22-1.47-4.66-2.64-7.26-3.45v-376.98h7.26z" />
				<path id="&lt;Path&gt;" class="s12" d="m2195.06 1385.8v414.46h-7.26v-414.46h7.26z" />
				<path id="&lt;Path&gt;" class="s12" d="m2249.3 1385.8v414.46h-7.26v-414.46h7.26z" />
				<path id="&lt;Path&gt;" class="s12" d="m2307.97 1385.8v380.21c-2.79 1.77-5.24 4.01-7.26 6.61v-386.81h7.26z" />
			</g>
			<g id="&lt;Group&gt;">
				<path id="&lt;Path&gt;" class="s13" d="m1920.27 1206.41c0.53-2.88 5.06-3.07 7.58-1.81c2.53 1.26-5.42 17.7-5.42 18.24c-1.8-9.04-2.52-14.52-2.17-16.44z" />
				<path id="&lt;Path&gt;" class="s13" d="m1910.54 1239.54c-8.82-9.58-14.27-17.9-16.36-24.98c-3.13-10.61 7.29-24.46 9.96-24.68c2.67-0.21 11.14 6.75 15.29 11.65c4.15 4.9 6.02 29.5 6.01 31.12l-14.9 6.89z" />
				<g id="&lt;Group&gt;">
					<path id="&lt;Path&gt;" class="s14" d="m1941.26 1202.84l-24.16 7.24c-0.8 0.24-1.65-0.21-1.89-1.02l-13.81-46.07c-0.24-0.8 0.21-1.65 1.02-1.89l24.16-7.24c0.8-0.24 1.65 0.21 1.89 1.02l13.81 46.07c0.24 0.8-0.21 1.65-1.02 1.89z" />
					<path id="&lt;Path&gt;" class="s15" d="m1934.98 1204.72l-21.92 6.57c-1.42 0.43-2.92-0.38-3.35-1.8l-13.14-43.83c-0.43-1.42 0.38-2.92 1.8-3.35l21.92-6.57c1.42-0.43 2.92 0.38 3.35 1.8l13.14 43.83c0.43 1.42-0.38 2.92-1.8 3.35z" />
				</g>
				<path id="&lt;Path&gt;" class="s13" d="m1901.64 1191.67c6.71-10.32 10.88-15.19 12.52-14.62c2.34 0.82-0.7 7.78-9.12 20.87c6.24-9.79 9.85-14.31 10.82-13.58c3.33 2.52-1.97 11.74-7.23 18.81c6.27-5.75 9.51-8.1 9.72-7.07c0.72 3.63-2.73 9.83-10.33 18.61l-6.38-14.56v-8.47z" />
				<path id="&lt;Path&gt;" class="s13" d="m1894.09 1206.05c0.49-1.89 2.94-38.86 3.99-35.36c0.7 2.34 1.89 9.97 3.55 22.89l-7.55 12.46z" />
				<path id="&lt;Path&gt;" class="s16" d="m2054.67 1195.87c-0.7 26.8-4.92 51.01-12.65 72.64c-9.16 25.62-24.89 46.4-51.88 38.73c-2.76-0.79-5.43-1.63-8.02-2.54c-0.01-0.01-0.03-0.01-0.03-0.01c-36.55-12.73-60.74-33.67-72.57-62.82c2.72-4.49 8.03-7.56 15.91-9.21c11.04 0.59 59.56 21.2 62.66 21.83c11.22 2.26 20.29-59.42 27.58-80.78c4.86-14.24 17.24-24.55 37.14-30.93l1.85 53.1z" />
				<path id="&lt;Path&gt;" class="s17" d="m2043.08 1239.54l-1.05 28.96c-9.16 25.62-24.89 46.4-51.88 38.73c-2.76-0.79-5.43-1.63-8.02-2.54c0.86 0.11 17.38 2.34 24.29-4.57c7.1-7.11 6.36-30.68 19.45-46.39c8.73-10.47 14.47-15.21 17.21-14.2z" />
				<path id="&lt;Path&gt;" class="s18" d="m2044.59 1769.24c9 8.21 12.62 15.23 10.86 21.06c-2.63 8.75-14.81 14.58-16.46 25.28c-1.65 10.69-8.23 16.53-14.15 16.53c-3.95 0-13.36 0-28.24 0c-2.91-5.02-0.85-8.28 6.17-9.79c10.53-2.27 14.5-14.84 13.84-26.5c-0.44-7.78-0.11-16.85 0.99-27.22l22.38-5.18l4.61 5.83z" />
				<path id="&lt;Path&gt;" class="s6" d="m1929.35 1810.4c5.25-3.77 29.05-40.54 30.62-43.09c12.83 1.73 28.03 4.38 33.66-1.42c-18.75 28.64-15.95 30.36-11.5 40.2c2.7 5.98 3.11 13.06 2.97 17.94c-0.09 3.26-2.77 5.84-6.03 5.84h-83.16c1.79-16.79 27.64-15.31 33.44-19.47z" />
				<path id="&lt;Path&gt;" class="s6" d="m2104.55 1361.09c20.71 5.61 6.22 88.65-28.56 114.46c-34.79 25.81-55.4 72.93-51.87 87.54c10.47 43.39 17.24 109.93 20.31 199.61c-2.58 7.14-7.26 12.04-14.03 14.71c-6.9 2.71-12.46 4.21-16.69 4.49c-51.74-125.43-73.38-204.36-64.9-236.77c10.92-41.77 36.48-100.57 76.68-176.42c38.9-8.82 65.25-11.35 79.06-7.61z" />
				<path id="&lt;Path&gt;" class="s19" d="m2170.17 1383.43c10.39 71.71-82.84 181.67-84.7 209.41c-2.69 40.01-34.93 105.28-96.72 195.8c-16.46 2.85-31.11 1.26-43.97-4.77c20.33-73.83 36.9-128.14 49.72-162.92c12.82-34.78 40.36-129.63 82.61-284.54l93.05 47.02z" />
				<path id="&lt;Path&gt;" class="s16" d="m2170.02 1408.91c-8.99 4.53-21.44 7.47-37.33 8.8h-0.02c-27.3 2.29-68.19-1.73-117.99-29.46c-9.26-7.63-8.2-27.67 3.18-60.12c12.92-36.85 19.21-114.55 34.98-185.36c34.1-10.7 64.83-11.42 92.18-2.18c31.35 10.6 28.23 58.72 34.02 108.83c0.54 4.68 1.16 9.37 1.89 14.05c5.71 36.57 2.08 85.05-10.9 145.44z" />
				<path id="&lt;Path&gt;" class="s20" d="m2034.79 1037.94c23.27-37.88 43.92-47.08 61.94-27.58c11.78 3.01 21.05 13.69 27.8 32.03c10.33 28.07-5.76 52.87-16.5 48.86c-4.59-1.71-7.96 1.39-10.11 9.31l-63.13-62.62z" />
				<path id="&lt;Path&gt;" class="s20" d="m2091.38 1005.88c1.6-15.68 13.86-22.76 36.78-21.24c-10.84 0.19-17.42 2.55-19.75 7.07c7.88-5.08 14.69-6.38 20.44-3.91c8.62 3.71 12.28 19.84 11.81 24.98c-0.47 5.14-7.09 21.18-12.88 22.02c-3.86 0.56-8.33-0.53-13.39-3.26l-23.02-25.66z" />
				<path id="&lt;Path&gt;" class="s13" d="m2079.38 1154.72c-6.9 0.32-13.68-0.33-13.98-7.23c-0.3-6.75-0.75-14.47-1.38-18.8c-1.03-7.06-2.36-14.29-3.98-21.71l34.7-12.22l2.06-0.72c3.86 27.48 8.67 36.52 11.9 45.13c-0.85 7.87-10.96 14.71-29.31 15.56z" />
				<path id="&lt;Path&gt;" class="s21" d="m2094.74 1094.75c-2.87 10.73-10.81 30.49-30.72 33.93c-1.03-7.06-2.36-14.29-3.98-21.71l34.7-12.22z" />
				<path id="&lt;Path&gt;" class="s20" d="m2044.77 1094.21l-5.02-10.55c-17.9-30.78-7.82-44.4-0.45-51.09c6.18-5.61 12.87-9.31 20.05-11.07c36.86-10.82 47.4 25.89 47.07 36.25c-0.32 9.68-3.17 20.54-8.56 32.58l-53.09 3.88z" />
				<path id="&lt;Path&gt;" class="s13" d="m2030.93 1059.85c0.99-10.18 5.25-22.26 35.69-24.87c30.45-2.61 27.16 18.01 31.38 47.48c2.81 19.64-11.59 31.48-43.19 35.5c-12.44 0.81-24.86-47.93-23.88-58.11z" />
				<path id="&lt;Path&gt;" class="s20" d="m2088.78 1037.4c4.14 13.79 11.87 23.99 23.2 30.59c-5.24 4.38-14.72 5.82-28.46 4.32c-13.74-1.5-26.59-13.14-38.54-34.94c4.93-11.9 19.53-11.9 43.8 0.03z" />
				<path id="&lt;Path&gt;" class="s20" d="m2048.59 1039.71c-5.71 6.07-8.98 11.72-9.83 16.95c-1.28 7.84-0.11 23.44-4.69 23.56c-8.76-14.72-10.13-27.04-4.09-36.96c6.4-10.51 12.6-11.7 18.62-3.56z" />
				<path id="&lt;Path&gt;" class="s20" d="m2054.29 1041.77c3.72 15.72 15 29.79 33.85 42.21c-17.83-5.32-31.56-19.6-41.19-42.84c1.17-15.3 3.62-15.09 7.33 0.63z" />
				<path id="&lt;Path&gt;" class="s17" d="m2170.02 1408.91c-8.99 4.53-21.44 7.47-37.33 8.8h-0.02c-13.06-16.38-12.31-33.74 2.27-52.09c21.86-27.53-1.71-78.32 15.13-105.94c11.72-19.22 23.12-14.75 28.97-10.26c0.54 4.68 1.16 9.37 1.89 14.05c5.71 36.57 2.08 85.05-10.9 145.44z" />
				<path id="&lt;Path&gt;" class="s13" d="m2256.02 1368.08c1.94 4.51 4.26 6.92 6.97 7.22c6.63 0.74 19.25 6.29 21.23 7.47c5.37 3.19 5.01 17.46-0.36 18.8c-5.37 1.34-8.06-10.63-24.84-13.84c-5.69-1.09-13.99 2.85-17.35-10.79l14.35-8.86z" />
				<path id="&lt;Path&gt;" class="s16" d="m2145 1140.59c48.81 17.95 50.62 104.43 72.38 142.51c14.96 26.18 29.73 56.51 44.3 90.97c-0.26 1.03-3.18 2.35-8.76 3.95c-3.93 1.13-7.94 1.45-12.05 0.97c-30.74-27.81-50.29-47.2-58.65-58.18c-8.35-10.97-22.38-41.91-42.07-92.81c-9.68-63.03-8.07-92.16 4.85-87.41z" />
				<path id="&lt;Path&gt;" class="s13" d="m2259.79 1385.91c1.12 5.37 5.82 8.51 5.12 11.41c-0.69 2.91-6.47-1.79-13.67-6.49c-4.8-3.13-7.59-6.64-8.38-10.51c10.54 0.14 16.18 2.01 16.93 5.59z" />
			</g>
			<path id="&lt;Path&gt;" class="s9" d="m1824.55 1605.14h-708.38v-512.8h708.38v512.8z" />
			<path id="&lt;Path&gt;" class="s10" d="m1646.2 1744.32v69.18c0 0.85-0.02 1.7-0.05 2.54h-354.23c-0.04-0.84-0.05-1.69-0.05-2.54v-69.18c0-31.56 20.37-57.38 45.26-57.38h263.81c24.89 0 45.26 25.82 45.26 57.38z" />
			<g id="&lt;Group&gt;">
				<g id="&lt;Group&gt;">
					<path id="&lt;Path&gt;" class="s22" d="m1468.68 1774.97l-22.8-20.41l6.41-7.16l14.73 13.19l20.38-29.16l7.87 5.5l-26.59 38.04z" />
				</g>
				<g id="&lt;Group&gt;">
					<path id="&lt;Compound Path&gt;" fill-rule="evenodd" class="s22" d="m1470.57 1796.84c-24.07 0-43.64-19.58-43.64-43.64c0-24.06 19.58-43.64 43.64-43.64c24.06 0 43.64 19.58 43.64 43.64c0 24.07-19.58 43.64-43.64 43.64zm0-85.04c-22.83 0-41.4 18.57-41.4 41.4c0 22.83 18.57 41.4 41.4 41.4c22.83 0 41.4-18.57 41.4-41.4c0-22.83-18.57-41.4-41.4-41.4z" />
				</g>
			</g>
			<path id="&lt;Path&gt;" class="s0" d="m1179.61 758.73c10.93-24.35 29.48-35.17 55.63-32.47c37.96-40.58 77.19-43.29 117.67-8.12c43.03-8.71 80.48-4.94 112.35 11.32c21.25 10.84 35.38 21.95 42.4 33.32l-328.05-4.06z" />
			<path id="&lt;Path&gt;" class="s0" d="m1410.64 672.39c0.2-0.01 0.41-0.01 0.61-0.02c2.49-0.04 4.88-0.94 6.71-2.61c8.25-7.54 33.38-26.3 60.44-4.75c2.12 1.69 4.85 2.39 7.53 1.99c10.45-1.53 37.76-4 59.14 7.45c0.58 0.31 1.15 0.62 1.71 0.94c8.9 4.99 5.16 18.6-5.04 18.47l-130.81-1.7c-12.82-0.17-13.11-19.3-0.29-19.77z" />
			<g id="&lt;Group&gt;">
				<path id="&lt;Compound Path&gt;" fill-rule="evenodd" class="s22" d="m1737.41 1529.91h-140.61c-24.26 0-43.99-19.73-43.99-43.99v-296.95c0-24.26 19.73-43.99 43.99-43.99h140.61c24.26 0 43.99 19.73 43.99 43.99v296.95c0 24.26-19.73 43.99-43.99 43.99zm-140.61-380.44c-21.78 0-39.5 17.72-39.5 39.5v296.95c0 21.78 17.72 39.5 39.5 39.5h140.61c21.78 0 39.5-17.72 39.5-39.5v-296.95c0-21.78-17.72-39.5-39.5-39.5h-140.61z" />
			</g>
			<path id="&lt;Path&gt;" class="s22" d="m1489.04 1338.54h-203.15c-17.88 0-32.37-14.49-32.37-32.37v-126.59c0-17.88 14.49-32.37 32.37-32.37h203.15c17.88 0 32.37 14.49 32.37 32.37v126.59c0 17.88-14.49 32.37-32.37 32.37z" />
			<g id="&lt;Group&gt;">
				<path id="&lt;Compound Path&gt;" fill-rule="evenodd" class="s22" d="m1492.03 1529.91h-209.14c-17.43 0-31.62-14.18-31.62-31.62v-98.82c0-17.43 14.18-31.62 31.62-31.62h209.14c17.43 0 31.62 14.18 31.62 31.62v98.82c0 17.43-14.18 31.62-31.62 31.62zm-209.14-157.57c-14.96 0-27.13 12.17-27.13 27.13v98.82c0 14.96 12.17 27.13 27.13 27.13h209.14c14.96 0 27.13-12.17 27.13-27.13v-98.82c0-14.96-12.17-27.13-27.13-27.13h-209.14z" />
			</g>
			<g id="&lt;Group&gt;">
				<path id="&lt;Compound Path&gt;" fill-rule="evenodd" class="s22" d="m1667.1 1190.84c32.29 0 58.46 28.15 58.46 62.86c0 23.14-19.49 53.21-58.46 90.2c-38.97-36.99-58.46-67.06-58.46-90.2c0-34.71 26.17-62.86 58.46-62.86zm0 93.62c19.07 0 34.44-15.38 34.44-34.44c0-18.98-15.38-34.45-34.44-34.45c-18.98 0-34.44 15.47-34.44 34.45c0 19.06 15.47 34.44 34.44 34.44z" />
			</g>
			<path id="&lt;Path&gt;" class="s9" d="m1494.77 1275.92l-16.04 11.38l0.77 0.75c0.71 0.69 0.25 1.9-0.74 1.93l-3.17 0.1c-0.37 0.01-0.7 0.2-0.9 0.51l-6.87 10.53c-0.38 0.58-1.19 0.68-1.69 0.21l-0.03-0.03c-0.72-0.66-1.19-1.55-1.34-2.51l-1.31-8.62c-0.06-0.4-0.33-0.74-0.71-0.88l-29.55-9.04c-0.5-0.19-4.76-1.77-4.95-1.27c-3.34 8.86-13.16 31.37-14.19 31.83c-0.32 0.14-1.22-1.22-2.08-2.46c-0.67-0.97-1.05-2.12-1.07-3.3l-0.3-14.62l-6.27-3.98c-0.85-0.54-1.1-1.67-0.57-2.52l2.86-4.53c0.54-0.85 1.67-1.1 2.52-0.57l1.24 0.79l-0.19-9.37c-0.01-0.46-0.3-0.87-0.73-1.03l-21.68-8.16c-3.31-1.25-5.9-3.91-7.04-7.26l-0.35-1.03c-0.7-2.05 0.44-4.26 2.51-4.87c1-0.3 2.08-0.61 3.08-0.9c2.47-0.72 5.11-0.56 7.48 0.45l26.73 11.4c0.26 0.11 0.55 0.12 0.82 0.02l5.6-2.03c-0.81-0.55-1.05-1.66-0.52-2.49l2.86-4.53c0.54-0.85 1.67-1.1 2.52-0.57l5.84 3.7l43.44-15.77c0.77-0.28 1.61-0.33 2.41-0.14c1.66 0.39 2.05 2.57 0.63 3.51c-8.89 5.88-32.54 19.1-40 24.53c-0.68 0.5-5.3 2.75-4.54 3.12l29.82 11.48c0.24 0.12 0.52 0.14 0.78 0.07l21.22-5.8c0.09-0.03 0.19-0.04 0.28-0.04l2.77-0.03c1.1-0.01 1.55 1.4 0.66 2.03z" />
			<g id="&lt;Group&gt;">
				<g id="&lt;Group&gt;">
					<path id="&lt;Compound Path&gt;" fill-rule="evenodd" class="s22" d="m1451.52 1492.6c-24.11 0-43.72-19.61-43.72-43.72c0-24.11 19.61-43.72 43.72-43.72c24.11 0 43.72 19.61 43.72 43.72c0 24.11-19.61 43.72-43.72 43.72zm0-82.66c-21.47 0-38.93 17.46-38.93 38.93c0 21.47 17.47 38.93 38.93 38.93c21.47 0 38.93-17.47 38.93-38.93c0-21.47-17.47-38.93-38.93-38.93z" />
				</g>
				<g id="&lt;Group&gt;">
					<path id="&lt;Path&gt;" class="s22" d="m1451.54 1454.75h-0.6c-0.83 0-1.52-0.68-1.52-1.52v-24.36c0-0.84 0.68-1.52 1.52-1.52h0.6c0.84 0 1.52 0.68 1.52 1.52v24.36c0 0.84-0.68 1.52-1.52 1.52z" />
					<path id="&lt;Path&gt;" class="s22" d="m1450.72 1453.96l-0.05-0.05c-0.34-0.34-0.34-0.9 0-1.24l24.31-24.31c0.34-0.34 0.9-0.34 1.24 0l0.05 0.05c0.34 0.34 0.34 0.9 0 1.24l-24.31 24.31c-0.34 0.34-0.9 0.34-1.23 0z" />
					<path id="&lt;Path&gt;" class="s22" d="m1448.85 1453.08c0-1.32 1.07-2.39 2.39-2.39c1.32 0 2.39 1.07 2.39 2.39c0 1.32-1.07 2.39-2.39 2.39c-1.32 0-2.39-1.07-2.39-2.39z" />
				</g>
			</g>
			<g id="&lt;Group&gt;">
				<path id="&lt;Path&gt;" class="s22" d="m1378.48 1406.48h-96.13v-9.97h96.13v9.97z" />
				<path id="&lt;Path&gt;" class="s22" d="m1378.48 1429.31h-96.13v-10.04h96.13v10.04z" />
				<path id="&lt;Path&gt;" class="s22" d="m1339.99 1452.14h-57.64v-10.04h57.64v10.04z" />
			</g>
			<g id="&lt;Group&gt;">
				<path id="&lt;Path&gt;" class="s22" d="m1715.16 1406.91h-96.13v-9.97h96.13v9.97z" />
				<path id="&lt;Path&gt;" class="s22" d="m1715.16 1429.74h-96.13v-10.04h96.13v10.04z" />
				<path id="&lt;Path&gt;" class="s22" d="m1676.68 1452.56h-57.64v-10.04h57.64v10.04z" />
			</g>
			<g id="&lt;Group&gt;">
				<path id="&lt;Path&gt;" class="s9" d="m1384.44 1201.2h-96.13v-9.97h96.13v9.97z" />
				<path id="&lt;Path&gt;" class="s9" d="m1384.44 1224.02h-96.13v-10.04h96.13v10.04z" />
				<path id="&lt;Path&gt;" class="s9" d="m1345.96 1246.85h-57.64v-10.04h57.64v10.04z" />
			</g>
			<g id="&lt;Group&gt;">
				<path id="&lt;Compound Path&gt;" class="s9" d="m2190.13 641.82c-1.15 0-2.13-0.88-2.23-2.04c0-0.04-0.36-3.96-1.1-10.9c-0.13-1.23 0.76-2.34 1.99-2.47c1.23-0.14 2.34 0.76 2.47 1.99c0.74 6.97 1.11 10.92 1.11 10.96c0.11 1.23-0.8 2.33-2.03 2.44c-0.07 0.01-0.14 0.01-0.21 0.01zm-2.3-21.77c-1.13 0-2.1-0.85-2.23-1.99c-0.37-3.28-0.79-6.89-1.27-10.8c-0.15-1.23 0.73-2.35 1.96-2.5c1.22-0.14 2.35 0.73 2.5 1.96c0.47 3.92 0.89 7.54 1.27 10.83c0.14 1.23-0.74 2.34-1.98 2.48c-0.09 0.01-0.17 0.01-0.26 0.01zm-2.6-21.61c-1.11 0-2.08-0.83-2.22-1.96c-0.43-3.43-0.9-7.02-1.39-10.77c-0.16-1.23 0.7-2.36 1.93-2.52c1.23-0.16 2.36 0.7 2.52 1.93c0.5 3.75 0.96 7.36 1.39 10.79c0.16 1.23-0.72 2.35-1.95 2.51c-0.1 0.01-0.19 0.02-0.28 0.02zm-2.84-21.55c-1.1 0-2.07-0.81-2.22-1.94c-0.48-3.48-0.98-7.07-1.51-10.75c-0.18-1.23 0.68-2.36 1.9-2.54c1.23-0.18 2.36 0.68 2.54 1.9c0.53 3.69 1.03 7.28 1.51 10.77c0.17 1.23-0.69 2.36-1.92 2.53c-0.1 0.01-0.21 0.02-0.31 0.02zm-3.08-21.51c-1.09 0-2.05-0.8-2.22-1.91c-0.52-3.51-1.06-7.08-1.63-10.73c-0.19-1.23 0.65-2.37 1.88-2.56c1.21-0.18 2.37 0.65 2.56 1.88c0.56 3.65 1.11 7.24 1.63 10.75c0.18 1.23-0.66 2.37-1.89 2.55c-0.11 0.02-0.22 0.02-0.33 0.02zm-3.32-21.46c-1.08 0-2.04-0.79-2.21-1.89c-0.56-3.52-1.15-7.09-1.75-10.7c-0.2-1.22 0.62-2.38 1.85-2.58c1.21-0.2 2.38 0.62 2.58 1.85c0.6 3.62 1.19 7.2 1.75 10.73c0.2 1.22-0.64 2.38-1.86 2.57c-0.12 0.02-0.24 0.03-0.36 0.03zm-3.56-21.42c-1.07 0-2.02-0.77-2.21-1.86c-0.61-3.52-1.23-7.09-1.88-10.68c-0.22-1.22 0.59-2.39 1.81-2.6c1.22-0.21 2.39 0.59 2.6 1.81c0.64 3.6 1.27 7.17 1.88 10.71c0.21 1.22-0.61 2.38-1.83 2.59c-0.13 0.02-0.26 0.03-0.38 0.03zm-3.82-21.37c-1.06 0-2-0.75-2.2-1.84c-0.65-3.53-1.33-7.08-2.01-10.65c-0.23-1.22 0.56-2.39 1.78-2.63c1.22-0.24 2.39 0.56 2.63 1.78c0.69 3.58 1.36 7.14 2.02 10.68c0.23 1.22-0.58 2.39-1.8 2.62c-0.14 0.03-0.28 0.04-0.41 0.04zm-4.11-21.32c-1.05 0-1.99-0.74-2.2-1.8c-0.7-3.53-1.42-7.07-2.16-10.62c-0.25-1.21 0.53-2.4 1.74-2.65c1.22-0.26 2.4 0.53 2.65 1.74c0.74 3.56 1.46 7.11 2.17 10.65c0.24 1.22-0.55 2.4-1.76 2.64c-0.15 0.03-0.3 0.04-0.44 0.04zm-4.41-21.25c-1.04 0-1.96-0.72-2.19-1.77c-0.76-3.51-1.53-7.03-2.32-10.55c-0.27-1.21 0.49-2.41 1.7-2.68c1.21-0.27 2.41 0.49 2.68 1.7c0.79 3.53 1.57 7.07 2.33 10.59c0.26 1.21-0.51 2.41-1.72 2.67c-0.16 0.03-0.32 0.05-0.47 0.05zm-4.74-21.15c-1.02 0-1.94-0.7-2.18-1.73c-0.82-3.52-1.66-7.05-2.51-10.57c-0.29-1.2 0.45-2.42 1.65-2.71c1.21-0.3 2.42 0.45 2.71 1.65c0.86 3.53 1.7 7.07 2.52 10.61c0.28 1.21-0.47 2.41-1.68 2.7c-0.17 0.04-0.34 0.06-0.51 0.06zm-5.13-21.12c-1 0-1.92-0.68-2.17-1.69c-0.89-3.5-1.79-7-2.72-10.48c-0.32-1.2 0.4-2.43 1.6-2.74c1.2-0.32 2.43 0.4 2.74 1.6c0.93 3.5 1.84 7.01 2.73 10.53c0.3 1.2-0.42 2.42-1.62 2.73c-0.19 0.05-0.37 0.07-0.55 0.07zm-5.56-20.98c-0.98 0-1.89-0.65-2.16-1.65c-0.97-3.49-1.95-6.96-2.95-10.42c-0.35-1.19 0.34-2.44 1.53-2.78c1.19-0.35 2.44 0.34 2.78 1.53c1.01 3.47 2 6.96 2.97 10.47c0.33 1.19-0.37 2.43-1.56 2.76c-0.2 0.06-0.4 0.08-0.6 0.08zm-6.05-20.84c-0.96 0-1.85-0.62-2.15-1.59c-1.06-3.46-2.14-6.94-3.23-10.33c-0.38-1.18 0.27-2.44 1.45-2.82c1.18-0.38 2.44 0.27 2.82 1.45c1.09 3.41 2.18 6.91 3.25 10.39c0.36 1.19-0.31 2.44-1.49 2.8c-0.22 0.07-0.44 0.1-0.66 0.1zm-6.63-20.67c-0.94 0-1.81-0.59-2.13-1.53c-1.16-3.44-2.36-6.87-3.55-10.21c-0.42-1.17 0.19-2.45 1.36-2.87c1.17-0.42 2.45 0.19 2.87 1.36c1.2 3.36 2.41 6.82 3.58 10.29c0.4 1.17-0.23 2.45-1.41 2.85c-0.24 0.08-0.48 0.12-0.72 0.12zm-220.28-7.22c-0.27 0-0.55-0.05-0.82-0.16c-1.15-0.45-1.72-1.75-1.27-2.91c0.77-1.98 1.55-3.93 2.33-5.85c0.46-1.15 1.77-1.7 2.92-1.24c1.15 0.47 1.7 1.77 1.24 2.92c-0.77 1.9-1.54 3.84-2.31 5.8c-0.35 0.89-1.19 1.43-2.09 1.43zm212.96-13.21c-0.9 0-1.76-0.55-2.1-1.45c-1.3-3.42-2.63-6.8-3.95-10.05c-0.47-1.15 0.09-2.46 1.23-2.92c1.15-0.47 2.46 0.09 2.92 1.23c1.33 3.28 2.68 6.7 3.99 10.15c0.44 1.16-0.14 2.46-1.3 2.9c-0.26 0.1-0.53 0.15-0.8 0.15zm-206.47-2.62c-0.3 0-0.6-0.06-0.88-0.18c-1.14-0.49-1.67-1.81-1.18-2.95c1.46-3.39 2.94-6.74 4.41-9.95c0.52-1.13 1.85-1.62 2.97-1.11c1.13 0.52 1.62 1.85 1.11 2.98c-1.46 3.18-2.93 6.5-4.37 9.85c-0.37 0.85-1.19 1.36-2.06 1.36zm198.29-17.48c-0.87 0-1.69-0.5-2.06-1.35c-1.47-3.37-2.97-6.68-4.45-9.82c-0.53-1.12-0.05-2.46 1.07-2.99c1.12-0.53 2.46-0.05 2.99 1.07c1.5 3.18 3.01 6.53 4.5 9.94c0.5 1.14-0.02 2.46-1.16 2.95c-0.29 0.13-0.6 0.19-0.9 0.19zm-189.26-2.2c-0.33 0-0.67-0.07-0.99-0.23c-1.11-0.55-1.57-1.89-1.03-3c1.63-3.32 3.3-6.59 4.95-9.71c0.58-1.09 1.94-1.51 3.03-0.93c1.09 0.58 1.51 1.94 0.93 3.03c-1.63 3.08-3.28 6.3-4.89 9.58c-0.39 0.79-1.19 1.25-2.02 1.25zm180.01-17.42c-0.82 0-1.6-0.45-2-1.22c-1.67-3.26-3.38-6.45-5.09-9.48c-0.61-1.08-0.22-2.45 0.86-3.06c1.08-0.61 2.45-0.23 3.06 0.85c1.74 3.08 3.47 6.32 5.17 9.63c0.57 1.1 0.13 2.46-0.97 3.02c-0.33 0.17-0.68 0.25-1.02 0.25zm-169.85-1.71c-0.38 0-0.77-0.1-1.12-0.3c-1.07-0.62-1.44-1.99-0.82-3.07c1.86-3.22 3.76-6.37 5.65-9.35c0.66-1.05 2.05-1.36 3.1-0.7c1.05 0.66 1.36 2.05 0.69 3.1c-1.85 2.93-3.72 6.02-5.55 9.19c-0.42 0.72-1.17 1.12-1.95 1.12zm159.18-17.17c-0.75 0-1.48-0.37-1.9-1.05c-1.95-3.11-3.95-6.11-5.94-8.91c-0.72-1.01-0.48-2.41 0.53-3.13c1.01-0.72 2.41-0.48 3.13 0.53c2.04 2.87 4.08 5.94 6.08 9.13c0.66 1.05 0.34 2.44-0.71 3.09c-0.37 0.23-0.78 0.34-1.19 0.34zm-147.58-1.1c-0.45 0-0.9-0.13-1.29-0.41c-1.01-0.71-1.26-2.11-0.54-3.13c2.16-3.07 4.37-6.02 6.56-8.78c0.77-0.97 2.18-1.13 3.15-0.36c0.97 0.77 1.13 2.18 0.36 3.15c-2.14 2.69-4.29 5.57-6.4 8.57c-0.44 0.62-1.13 0.95-1.84 0.95zm135-16.53c-0.65 0-1.29-0.28-1.73-0.82c-2.33-2.84-4.72-5.49-7.09-7.9c-0.87-0.88-0.86-2.3 0.02-3.17c0.88-0.87 2.31-0.86 3.17 0.02c2.46 2.5 4.94 5.26 7.35 8.2c0.79 0.96 0.65 2.37-0.31 3.16c-0.42 0.34-0.92 0.51-1.42 0.51zm-121.5-0.39c-0.54 0-1.08-0.19-1.51-0.59c-0.91-0.84-0.98-2.26-0.14-3.17c2.55-2.78 5.16-5.41 7.77-7.81c0.91-0.84 2.33-0.78 3.17 0.13c0.84 0.91 0.78 2.33-0.13 3.17c-2.51 2.32-5.04 4.85-7.5 7.54c-0.44 0.48-1.05 0.73-1.66 0.73zm15.95-14.6c-0.68 0-1.36-0.31-1.8-0.9c-0.74-0.99-0.54-2.4 0.45-3.14c3.03-2.27 6.15-4.32 9.26-6.1c1.08-0.62 2.45-0.24 3.06 0.83c0.62 1.08 0.24 2.45-0.83 3.06c-2.96 1.69-5.92 3.64-8.81 5.8c-0.4 0.3-0.88 0.45-1.34 0.45zm90.35-0.32c-0.5 0-0.99-0.16-1.41-0.5c-2.81-2.27-5.69-4.27-8.55-5.96c-1.07-0.63-1.42-2-0.79-3.07c0.63-1.07 2-1.42 3.07-0.79c3.05 1.8 6.11 3.93 9.09 6.33c0.96 0.78 1.12 2.19 0.34 3.16c-0.44 0.55-1.09 0.83-1.75 0.83zm-71.58-10.33c-0.89 0-1.74-0.54-2.09-1.42c-0.46-1.15 0.11-2.46 1.26-2.91c3.48-1.38 7.07-2.49 10.66-3.3c1.2-0.28 2.41 0.48 2.68 1.69c0.27 1.21-0.49 2.41-1.7 2.68c-3.37 0.76-6.73 1.8-10 3.1c-0.27 0.11-0.55 0.16-0.83 0.16zm53.05-0.43c-0.25 0-0.51-0.04-0.77-0.14c-1.67-0.61-3.36-1.13-5.05-1.54c-1.72-0.43-3.43-0.81-5.08-1.13c-1.22-0.24-2.01-1.42-1.77-2.64c0.24-1.22 1.42-2.01 2.64-1.77c1.72 0.34 3.5 0.74 5.29 1.18c1.84 0.45 3.69 1.02 5.5 1.68c1.16 0.42 1.77 1.71 1.34 2.88c-0.33 0.91-1.19 1.48-2.11 1.48zm-21.19-4.25c-0.06 0-0.12 0-0.17-0.01c-3.57-0.27-7.09-0.29-10.5-0.07c-1.24 0.08-2.31-0.85-2.39-2.09c-0.08-1.24 0.85-2.31 2.09-2.39c3.63-0.24 7.36-0.22 11.14 0.07c1.24 0.09 2.16 1.17 2.07 2.41c-0.09 1.18-1.07 2.07-2.24 2.07z" />
			</g>
			<path id="&lt;Path&gt;" class="s23" d="m2789.99 1837.24l-2555.72-0.88c-1.71 0-3.11-1.4-3.11-3.12l0-1.59c0-1.71 1.4-3.12 3.12-3.11l2555.72 0.88c1.71 0 3.11 1.4 3.11 3.12l0 1.6c0 1.71-1.4 3.11-3.12 3.11z" />
			<path id="&lt;Path&gt;" class="s24" d="m1116.48 889.29c20.39-1.41 32.8 5.88 37.25 21.88c15.7-31.99 40.13-46.66 73.29-44.03c33.16 2.64 52.81 13.71 58.93 33.21c19-6.53 36.39-5.44 52.17 3.26c15.78 8.7 23.16 21.03 22.15 36.98c14.47-20.31 36.24-26.83 65.32-19.58c-5.8-29.36 8.78-47.4 43.75-54.11c34.97-6.71 59.88-4.27 74.73 7.33c39.6-25.5 76.93-22.27 111.99 9.7c25.69-4.99 44.81 0.43 57.37 16.25c25.73-31.1 62.81-43.92 111.22-38.45v230.61h-708.46l0.3-203.06z" />
			<path id="&lt;Path&gt;" class="s0" d="m1116.47 1004.37c34.29-8.67 66.74-2.91 97.34 17.29c7.46-8.89 20.9-12.23 40.33-10.03c19.43 2.2 31.82 12.27 37.17 30.22c67.98-22.45 118.8-5.62 152.45 50.5h-327.59l0.29-87.97z" />
			<path id="&lt;Path&gt;" class="s0" d="m1506.52 1092.35c1.74-34.41 20.57-55.72 56.49-63.95c-18.6-8.23-23.22-22.57-13.84-43.02c9.38-20.45 25.46-31.42 48.24-32.92c2.38-36.99 35.87-52.3 100.46-45.91c27.2 2.69 56 18.98 60.5 47.41c7-11.52 17.76-16.9 32.27-16.12c1.79-21.04 13.13-31.46 33.99-31.28v185.79h-318.11z" />
			<g id="&lt;Group&gt;">
				<path id="&lt;Path&gt;" class="s16" d="m1779.15 648.55l-40.67 140.89l-1.28-0.16l-138.94-16.88c42.9-8.92 66.58-15.96 71.04-21.11c6.3-7.28 73.12-93.61 92.67-102.84c1.2-0.57 2.22-0.84 3.04-0.79c9.43 0.59 14.15 0.88 14.15 0.88z" />
				<path id="&lt;Path&gt;" class="s25" d="m1737.2 789.28l-138.94-16.88c42.9-8.92 66.58-15.96 71.04-21.11c6.3-7.28 73.12-93.61 92.67-102.84c-17.3 25.13-57.41 85.52-55.71 103.08c1.62 16.72 21.19 31.41 30.95 37.75z" />
				<path id="&lt;Path&gt;" class="s26" d="m1752.21 831.71c-4.74 1.62-18.91 6.09-38.37 11.75c-55.92 16.26-155.38 42.37-199.27 39.15c-39.37-2.89-247.6-18.79-391.64-31.42c34.85-61.21 78.31-95.02 118.08-113.56c167.81 13.75 387.27 32.33 415.2 37.72c30.62 5.92 66.25 11.29 106.87 16.1c0.28 1.24 0.54 2.85 0.81 4.82c1.29 9.6 2.38 30.6-11.67 35.44z" />
				<path id="&lt;Path&gt;" class="s24" d="m1764.6 806.46c-0.01 0.34-0.01 0.71-0.02 1.06c-0.12 7.64-1.68 16.16-7.08 21.07c-0.18 0.17-0.37 0.33-0.57 0.49c-0.38 0.31-0.79 0.62-1.2 0.89c0 0 0 0-0.01 0v0.01c-0.2 0.13-0.42 0.26-0.65 0.4c-0.21 0.12-0.43 0.25-0.67 0.37c0 0 0 0-0.01 0c-0.22 0.12-0.45 0.23-0.7 0.34c-0.24 0.11-0.48 0.22-0.74 0.32c-0.24 0.1-0.5 0.19-0.76 0.28c-0.08 0.03-0.15 0.05-0.23 0.07v0.01c-0.08 0.02-0.16 0.05-0.24 0.08c-0.08 0.03-0.17 0.05-0.25 0.08v0.01c-0.09 0.02-0.18 0.05-0.27 0.08v0.01c-0.09 0.02-0.19 0.05-0.28 0.09c-0.1 0.03-0.2 0.06-0.29 0.09c0 0 0 0-0.01 0v0.01c-0.1 0.03-0.2 0.06-0.3 0.1c-0.11 0.03-0.21 0.07-0.32 0.1h-0.01c-0.11 0.04-0.21 0.07-0.33 0.11c-0.11 0.04-0.23 0.07-0.34 0.11c-0.24 0.08-0.49 0.16-0.74 0.24h-0.01c-0.12 0.04-0.25 0.08-0.37 0.12h-0.01v0.01c-0.13 0.04-0.26 0.08-0.39 0.12c-0.1 0.03-0.19 0.06-0.29 0.09c-1.05 0.34-2.22 0.72-3.5 1.12c-0.24 0.07-0.47 0.14-0.73 0.22c-3.36 1.06-7.44 2.32-12.13 3.73c-0.48 0.14-0.97 0.29-1.47 0.44c-0.82 0.25-1.66 0.5-2.51 0.76c-0.18 0.05-0.36 0.11-0.56 0.16c-0.25 0.08-0.53 0.16-0.79 0.24c-0.26 0.08-0.52 0.15-0.8 0.23c-0.27 0.08-0.54 0.16-0.81 0.24c-0.26 0.08-0.54 0.16-0.82 0.24c-0.27 0.08-0.55 0.16-0.82 0.24c-0.28 0.08-0.56 0.17-0.84 0.25c-0.28 0.08-0.57 0.16-0.84 0.24c-0.01 0-0.01 0-0.01 0.01c-0.28 0.08-0.57 0.16-0.85 0.24c-0.2 0.06-0.4 0.12-0.62 0.19c-0.08 0.01-0.16 0.04-0.24 0.07c-0.29 0.08-0.58 0.16-0.87 0.24c-1.45 0.43-2.94 0.87-4.46 1.3c-0.87 0.26-1.76 0.51-2.66 0.78c-0.77 0.22-1.54 0.44-2.32 0.67c-0.58 0.17-1.17 0.34-1.77 0.51c-2.31 0.66-4.68 1.33-7.11 2.02c-0.5 0.14-0.98 0.27-1.46 0.41c-0.85 0.24-1.7 0.47-2.55 0.72c-0.77 0.22-1.54 0.43-2.33 0.66c-0.87 0.24-1.74 0.48-2.61 0.73c-29.06 8.07-64.29 17.11-96.96 23.68c-1.14 0.23-2.29 0.45-3.43 0.69c-0.57 0.11-1.13 0.22-1.7 0.33c-1.14 0.22-2.27 0.43-3.4 0.65c-3.38 0.65-6.73 1.26-10.03 1.84c-1.1 0.19-2.19 0.38-3.28 0.57c-0.55 0.09-1.09 0.18-1.63 0.27c-1.08 0.18-2.16 0.35-3.23 0.54c-1.07 0.17-2.14 0.33-3.2 0.49c-1.05 0.16-2.1 0.32-3.15 0.47c-1.04 0.16-2.09 0.31-3.11 0.45c-1.04 0.14-2.06 0.28-3.07 0.42c-1.02 0.13-2.03 0.26-3.03 0.39c-0.49 0.06-1 0.12-1.49 0.18c-1.98 0.24-3.94 0.46-5.84 0.67c-0.48 0.05-0.96 0.1-1.43 0.14c-0.95 0.09-1.88 0.18-2.82 0.27c-1.86 0.16-3.67 0.31-5.45 0.42c-1.33 0.1-2.64 0.17-3.93 0.23c-0.86 0.05-1.71 0.08-2.54 0.11c-1.25 0.05-2.48 0.08-3.67 0.09c-1.6 0.03-3.16 0.02-4.65-0.01c-0.76-0.01-1.49-0.04-2.22-0.07c-0.36-0.01-0.72-0.02-1.08-0.05c-0.72-0.03-1.41-0.07-2.1-0.12c-0.24-0.02-0.5-0.04-0.77-0.06c-0.06 0-0.12-0.01-0.18-0.01c-0.16-0.02-0.33-0.03-0.5-0.04c-0.65-0.05-1.32-0.09-2.05-0.15c-0.19-0.01-0.38-0.03-0.59-0.04c-0.24-0.02-0.48-0.04-0.74-0.06c-0.37-0.02-0.77-0.05-1.16-0.08c-0.21-0.02-0.42-0.03-0.64-0.05c-0.21-0.01-0.43-0.03-0.65-0.05c-0.44-0.03-0.89-0.06-1.34-0.1c-0.45-0.03-0.92-0.07-1.39-0.1c-0.24-0.02-0.48-0.03-0.73-0.05c-0.6-0.05-1.2-0.09-1.83-0.14c-0.29-0.02-0.59-0.04-0.88-0.07c-0.62-0.04-1.25-0.09-1.9-0.14c-0.27-0.02-0.54-0.03-0.83-0.06c-0.8-0.06-1.6-0.12-2.44-0.18c-2.31-0.17-4.77-0.36-7.38-0.56c-0.31-0.03-0.64-0.05-0.97-0.08c-0.65-0.04-1.3-0.09-1.98-0.14c-0.99-0.08-2.01-0.15-3.05-0.23c-0.42-0.04-0.85-0.07-1.26-0.1c-0.98-0.07-1.98-0.15-2.98-0.22c-0.36-0.03-0.74-0.06-1.1-0.08c-0.69-0.06-1.38-0.11-2.09-0.16l-2.3-0.18c-0.41-0.03-0.82-0.06-1.23-0.09c-0.38-0.03-0.77-0.06-1.15-0.09c-0.62-0.04-1.23-0.09-1.86-0.14c-3.58-0.27-7.31-0.56-11.18-0.85c-0.57-0.05-1.12-0.09-1.7-0.13c-0.86-0.07-1.73-0.14-2.6-0.2c-2.02-0.16-4.09-0.31-6.18-0.47c-0.16-0.02-0.32-0.03-0.48-0.04c-1.82-0.14-3.65-0.28-5.51-0.42c-0.09-0.01-0.18-0.02-0.26-0.02c-11.09-0.86-23.05-1.79-35.67-2.77c-0.64-0.05-1.27-0.1-1.92-0.15c-2.55-0.19-5.14-0.39-7.74-0.6c-1.64-0.13-3.28-0.26-4.93-0.39c-0.09 0-0.18-0.01-0.27-0.02c-1.88-0.14-3.78-0.29-5.68-0.44c-0.23-0.01-0.46-0.04-0.71-0.05c-3.34-0.26-6.73-0.53-10.16-0.8c-0.88-0.07-1.76-0.14-2.63-0.21c-0.27-0.02-0.53-0.04-0.81-0.06c-2.99-0.23-6.02-0.47-9.06-0.72c-1.33-0.1-2.65-0.2-3.99-0.31c-0.89-0.07-1.77-0.14-2.65-0.2c-1.8-0.15-3.59-0.29-5.4-0.43c-2.71-0.21-5.42-0.42-8.15-0.65c-0.24-0.01-0.48-0.04-0.73-0.05c-1.13-0.1-2.25-0.18-3.37-0.27c-0.08-0.01-0.16-0.01-0.24-0.02c-3.35-0.26-6.71-0.54-10.1-0.8c-0.09-0.01-0.18-0.02-0.28-0.03c-0.35-0.03-0.7-0.05-1.05-0.08c-1.99-0.15-3.99-0.31-5.99-0.47c-1.5-0.12-3.02-0.23-4.53-0.36c-0.94-0.07-1.88-0.14-2.82-0.22c-3.93-0.3-7.86-0.63-11.82-0.94l-0.1-0.01c-6.55-0.54-13.14-1.06-19.77-1.6c-0.91-0.07-1.81-0.14-2.72-0.22l-0.19-0.01c-2.91-0.23-5.8-0.47-8.72-0.71c-0.9-0.07-1.79-0.14-2.69-0.22c-2.5-0.2-5.01-0.4-7.51-0.61c-5.09-0.42-10.19-0.84-15.27-1.25c-3.22-0.26-6.44-0.52-9.65-0.79c-2.02-0.17-4.04-0.34-6.05-0.5c-4.82-0.39-9.61-0.79-14.4-1.18c-0.23-0.02-0.45-0.04-0.69-0.06c-3-0.25-6.01-0.49-8.99-0.75c-4.26-0.35-8.52-0.72-12.75-1.07c-1.7-0.14-3.39-0.28-5.08-0.42c-0.52-0.04-1.03-0.09-1.54-0.13c-3.42-0.28-6.81-0.58-10.2-0.86c-0.5-0.04-1-0.08-1.49-0.12c-2.32-0.2-4.63-0.39-6.93-0.6c-9.76-0.83-19.35-1.65-28.72-2.46c-1.13-0.09-2.25-0.19-3.38-0.29c-0.69-0.06-1.37-0.12-2.05-0.17c-0.92-0.09-1.83-0.16-2.75-0.24c-1.82-0.16-3.63-0.31-5.43-0.47c-34.92-3.06-66.07-5.94-90.12-8.38c-2.45-0.24-4.84-0.48-7.13-0.73c-5.71-0.6-10.94-1.16-15.65-1.71c-13.32-1.5-22.4-2.77-26-3.67c-19.45-4.91-51.9-17.81-71.79-31.21c-11.99-8.09-19.41-16.35-16.66-23.17c3.5-8.67 11.11-13.91 18.93-17.76c6.77-3.35 13.7-5.65 18.23-8.28c0.26-0.15 0.51-0.3 0.77-0.45c0.84-0.52 1.57-1.07 2.2-1.64c0.1-0.1 0.2-0.18 0.32-0.3c1.77-1.61 4.67-4.29 8.87-7.44c2.8-2.1 6.16-4.4 10.15-6.74c0.03-0.02 0.04-0.02 0.06-0.04c17.4-10.19 46.51-20.97 90.84-17.77c57.85 4.57 122.86 9.81 195.03 15.73c0.01 0 0.01 0 0.01 0c10.79 0.88 21.79 1.79 32.94 2.71c0.01 0 0.01 0 0.01 0c3.71 0.3 7.45 0.61 11.2 0.92c5.62 0.46 11.28 0.94 16.95 1.4c0 0 0 0 0.01 0c9.46 0.79 18.98 1.57 28.54 2.37c1.91 0.16 3.83 0.32 5.74 0.47c3.83 0.32 7.65 0.65 11.48 0.96c7.67 0.65 15.33 1.29 23 1.94c3.82 0.32 7.63 0.65 11.45 0.96c13.63 1.15 27.18 2.3 40.54 3.45h0.06c38.59 3.31 75.61 6.54 108.44 9.52c0.01 0 0.01 0 0.01 0c1.74 0.15 3.46 0.31 5.17 0.46c19.27 1.76 37.01 3.41 52.64 4.93c7.48 0.74 14.49 1.43 20.95 2.09c23.4 2.38 39.72 4.3 46.09 5.53c16.55 3.2 35.04 6.19 51.92 8.69c1.39 0.21 2.78 0.41 4.14 0.61c0.07 0.02 0.14 0.02 0.21 0.03c2.09 0.31 4.15 0.61 6.18 0.9c0.06 0.01 0.12 0.02 0.18 0.03c2.34 0.33 4.63 0.66 6.86 0.97c3.26 0.45 6.39 0.88 9.35 1.28c1.28 0.17 2.52 0.34 3.74 0.5c9.72 1.29 17.81 2.32 24.28 3.09c0.04 0.18 0.09 0.42 0.15 0.75c0.01 0.04 0.02 0.08 0.03 0.12c0.02 0.13 0.05 0.27 0.08 0.43c0.05 0.31 0.12 0.68 0.18 1.09c0.09 0.55 0.19 1.17 0.28 1.88c0 0.01 0 0.01 0.01 0.01c0.02 0.17 0.05 0.35 0.07 0.54c0.08 0.59 0.16 1.21 0.23 1.89c0.05 0.46 0.1 0.96 0.15 1.45c0.02 0.27 0.05 0.56 0.07 0.84c0.03 0.31 0.05 0.63 0.07 0.94c0.03 0.45 0.06 0.92 0.09 1.39c0.01 0.19 0.02 0.38 0.02 0.58c0.02 0.33 0.03 0.68 0.04 1.01c0.01 0.18 0.01 0.35 0.01 0.52c0.01 0.34 0.02 0.7 0.02 1.04c0 0.17 0 0.35 0.01 0.53z" />
				<path id="&lt;Path&gt;" class="s27" d="m1764.6 806.46c-0.01 0.34-0.01 0.71-0.02 1.06c-0.12 7.64-1.68 16.16-7.08 21.07c-0.18 0.17-0.37 0.33-0.57 0.49c-0.38 0.31-0.79 0.62-1.2 0.89c0 0 0 0-0.01 0v0.01c-0.2 0.13-0.42 0.26-0.65 0.4c-0.21 0.12-0.43 0.25-0.67 0.37c0 0 0 0-0.01 0c-0.22 0.12-0.45 0.23-0.7 0.34c-0.24 0.11-0.48 0.22-0.74 0.32c-0.24 0.1-0.5 0.19-0.76 0.28c-0.08 0.03-0.15 0.05-0.23 0.07v0.01c-0.08 0.02-0.16 0.05-0.24 0.08c-0.08 0.03-0.17 0.05-0.25 0.08v0.01c-0.09 0.02-0.18 0.05-0.27 0.08v0.01c-0.09 0.02-0.19 0.05-0.28 0.09c-0.1 0.03-0.2 0.06-0.29 0.09c0 0 0 0-0.01 0v0.01c-0.1 0.03-0.2 0.06-0.3 0.1c-0.11 0.03-0.21 0.07-0.32 0.1h-0.01c-0.11 0.04-0.21 0.07-0.33 0.11c-0.11 0.04-0.23 0.07-0.34 0.11c-0.24 0.08-0.49 0.16-0.74 0.24h-0.01c-0.12 0.04-0.25 0.08-0.37 0.12h-0.01v0.01c-0.13 0.04-0.26 0.08-0.39 0.12c-0.1 0.03-0.19 0.06-0.29 0.09c-1.05 0.34-2.22 0.72-3.5 1.12c-0.24 0.07-0.47 0.14-0.73 0.22c-3.36 1.06-7.44 2.32-12.13 3.73c-0.48 0.14-0.97 0.29-1.47 0.44c-0.82 0.25-1.66 0.5-2.51 0.76c-0.18 0.05-0.36 0.11-0.56 0.16c-0.25 0.08-0.53 0.16-0.79 0.24c-0.26 0.08-0.52 0.15-0.8 0.23c-0.27 0.08-0.54 0.16-0.81 0.24c-0.26 0.08-0.54 0.16-0.82 0.24c-0.27 0.08-0.55 0.16-0.82 0.24c-0.28 0.08-0.56 0.17-0.84 0.25c-0.28 0.08-0.57 0.16-0.84 0.24c-0.01 0-0.01 0-0.01 0.01c-0.28 0.08-0.57 0.16-0.85 0.24c-0.2 0.06-0.4 0.12-0.62 0.19c-0.08 0.01-0.16 0.04-0.24 0.07c-0.29 0.08-0.58 0.16-0.87 0.24c-1.45 0.43-2.94 0.87-4.46 1.3c-0.87 0.26-1.76 0.51-2.66 0.78c-0.77 0.22-1.54 0.44-2.32 0.67c-0.58 0.17-1.17 0.34-1.77 0.51c-2.31 0.66-4.68 1.33-7.11 2.02c-0.5 0.14-0.98 0.27-1.46 0.41c-0.85 0.24-1.7 0.47-2.55 0.72c-0.77 0.22-1.54 0.43-2.33 0.66c-0.87 0.24-1.74 0.48-2.61 0.73c-29.06 8.07-64.29 17.11-96.96 23.68c-1.14 0.23-2.29 0.45-3.43 0.69c-0.57 0.11-1.13 0.22-1.7 0.33c-1.14 0.22-2.27 0.43-3.4 0.65c-3.38 0.65-6.73 1.26-10.03 1.84c-1.1 0.19-2.19 0.38-3.28 0.57c-0.55 0.09-1.09 0.18-1.63 0.27c-1.08 0.18-2.16 0.35-3.23 0.54c-1.07 0.17-2.14 0.33-3.2 0.49c-1.05 0.16-2.1 0.32-3.15 0.47c-1.04 0.16-2.09 0.31-3.11 0.45c-1.04 0.14-2.06 0.28-3.07 0.42c-1.02 0.13-2.03 0.26-3.03 0.39c-0.49 0.06-1 0.12-1.49 0.18c-1.98 0.24-3.94 0.46-5.84 0.67c-0.48 0.05-0.96 0.1-1.43 0.14c-0.95 0.09-1.88 0.18-2.82 0.27c-1.86 0.16-3.67 0.31-5.45 0.42c-1.33 0.1-2.64 0.17-3.93 0.23c-0.86 0.05-1.71 0.08-2.54 0.11c-1.25 0.05-2.48 0.08-3.67 0.09c-1.6 0.03-3.16 0.02-4.65-0.01c-0.76-0.01-1.49-0.04-2.22-0.07c-0.36-0.01-0.72-0.02-1.08-0.05c-0.72-0.03-1.41-0.07-2.1-0.12c-0.24-0.02-0.5-0.04-0.77-0.06c-0.06 0-0.12-0.01-0.18-0.01c-0.16-0.02-0.33-0.03-0.5-0.04c-0.65-0.05-1.32-0.09-2.05-0.15c-0.19-0.01-0.38-0.03-0.59-0.04c-0.24-0.02-0.48-0.04-0.74-0.06c-0.37-0.02-0.77-0.05-1.16-0.08c-0.21-0.02-0.42-0.03-0.64-0.05c-0.21-0.01-0.43-0.03-0.65-0.05c-0.44-0.03-0.89-0.06-1.34-0.1c-0.45-0.03-0.92-0.07-1.39-0.1c-0.24-0.02-0.48-0.03-0.73-0.05c-0.6-0.05-1.2-0.09-1.83-0.14c-0.29-0.02-0.59-0.04-0.88-0.07c-0.62-0.04-1.25-0.09-1.9-0.14c-0.27-0.02-0.54-0.03-0.83-0.06c-0.8-0.06-1.6-0.12-2.44-0.18c-2.31-0.17-4.77-0.36-7.38-0.56c-0.31-0.03-0.64-0.05-0.97-0.08c-0.65-0.04-1.3-0.09-1.98-0.14c-0.99-0.08-2.01-0.15-3.05-0.23c-0.42-0.04-0.85-0.07-1.26-0.1c-0.98-0.07-1.98-0.15-2.98-0.22c-0.36-0.03-0.74-0.06-1.1-0.08c-0.69-0.06-1.38-0.11-2.09-0.16l-2.3-0.18c-0.41-0.03-0.82-0.06-1.23-0.09c-0.38-0.03-0.77-0.06-1.15-0.09c-0.62-0.04-1.23-0.09-1.86-0.14c-3.58-0.27-7.31-0.56-11.18-0.85c-0.57-0.05-1.12-0.09-1.7-0.13c-0.86-0.07-1.73-0.14-2.6-0.2c-2.02-0.16-4.09-0.31-6.18-0.47c-0.16-0.02-0.32-0.03-0.48-0.04c-1.82-0.14-3.65-0.28-5.51-0.42c-0.09-0.01-0.18-0.02-0.26-0.02c-11.09-0.86-23.05-1.79-35.67-2.77c-0.64-0.05-1.27-0.1-1.92-0.15c-2.55-0.19-5.14-0.39-7.74-0.6c-1.64-0.13-3.28-0.26-4.93-0.39c-0.09 0-0.18-0.01-0.27-0.02c-1.88-0.14-3.78-0.29-5.68-0.44c-0.23-0.01-0.46-0.04-0.71-0.05c-3.34-0.26-6.73-0.53-10.16-0.8c-0.88-0.07-1.76-0.14-2.63-0.21c-0.27-0.02-0.53-0.04-0.81-0.06c-2.99-0.23-6.02-0.47-9.06-0.72c-1.33-0.1-2.65-0.2-3.99-0.31c-0.89-0.07-1.77-0.14-2.65-0.2c-1.8-0.15-3.59-0.29-5.4-0.43c-2.71-0.21-5.42-0.42-8.15-0.65c-0.24-0.01-0.48-0.04-0.73-0.05c-1.13-0.1-2.25-0.18-3.37-0.27c-0.08-0.01-0.16-0.01-0.24-0.02c-3.35-0.26-6.71-0.54-10.1-0.8c-0.09-0.01-0.18-0.02-0.28-0.03c-0.35-0.03-0.7-0.05-1.05-0.08c50.66-28.25 83.23-66.62 97.7-115.12h0.06c38.59 3.31 75.61 6.54 108.44 9.52c0.01 0 0.01 0 0.01 0c1.74 0.15 3.46 0.31 5.17 0.46c19.27 1.76 37.01 3.41 52.64 4.93c7.48 0.74 14.49 1.43 20.95 2.09c23.4 2.38 39.72 4.3 46.09 5.53c16.55 3.2 35.04 6.19 51.92 8.69c1.39 0.21 2.78 0.41 4.14 0.61c0.07 0.02 0.14 0.02 0.21 0.03c2.09 0.31 4.15 0.61 6.18 0.9c0.06 0.01 0.12 0.02 0.18 0.03c2.34 0.33 4.63 0.66 6.86 0.97c3.26 0.45 6.39 0.88 9.35 1.28c1.28 0.17 2.52 0.34 3.74 0.5c9.72 1.29 17.81 2.32 24.28 3.09c0.04 0.18 0.09 0.42 0.15 0.75c0.01 0.04 0.02 0.08 0.03 0.12c0.02 0.13 0.05 0.27 0.08 0.43c0.05 0.31 0.12 0.68 0.18 1.09c0.09 0.55 0.19 1.17 0.28 1.88c0 0.01 0 0.01 0.01 0.01c0.02 0.17 0.05 0.35 0.07 0.54c0.08 0.59 0.16 1.21 0.23 1.89c0.05 0.46 0.1 0.96 0.15 1.45c0.02 0.27 0.05 0.56 0.07 0.84c0.03 0.31 0.05 0.63 0.07 0.94c0.03 0.45 0.06 0.92 0.09 1.39c0.01 0.19 0.02 0.38 0.02 0.58c0.02 0.33 0.03 0.68 0.04 1.01c0.01 0.18 0.01 0.35 0.01 0.52c0.01 0.34 0.02 0.7 0.02 1.04c0 0.17 0 0.35 0.01 0.53z" />
				<path id="&lt;Path&gt;" class="s28" d="m1752.21 831.7c-4.74 1.63-18.92 6.09-38.36 11.75c-4.33-18.12-13.47-30.97-27.42-38.53l77.46-8.65c1.29 9.6 2.38 30.61-11.68 35.44z" />
				<g id="&lt;Group&gt;">
					<path id="&lt;Path&gt;" class="s25" d="m1338.05 795.83c-2.53-0.22-4.39-2.72-4.13-5.55l0.49-5.46c0.26-2.84 2.54-4.98 5.07-4.76c2.53 0.22 4.39 2.72 4.13 5.55l-0.49 5.46c-0.26 2.83-2.54 4.98-5.07 4.76z" />
					<path id="&lt;Path&gt;" class="s25" d="m1314.33 793.78c-2.53-0.22-4.39-2.72-4.13-5.55l0.49-5.46c0.26-2.83 2.54-4.98 5.07-4.76c2.53 0.22 4.39 2.72 4.13 5.55l-0.49 5.46c-0.26 2.84-2.54 4.98-5.07 4.76z" />
					<path id="&lt;Path&gt;" class="s25" d="m1290.6 791.74c-2.53-0.22-4.39-2.72-4.13-5.55l0.49-5.46c0.26-2.83 2.54-4.98 5.07-4.76c2.53 0.22 4.39 2.72 4.13 5.55l-0.49 5.46c-0.26 2.83-2.54 4.98-5.07 4.76z" />
					<path id="&lt;Path&gt;" class="s25" d="m1266.87 789.69c-2.53-0.22-4.39-2.72-4.13-5.55l0.49-5.46c0.26-2.83 2.54-4.98 5.07-4.76c2.53 0.22 4.39 2.72 4.13 5.55l-0.49 5.46c-0.26 2.83-2.54 4.98-5.07 4.76z" />
					<path id="&lt;Path&gt;" class="s25" d="m1243.15 787.64h0c-2.53-0.22-4.39-2.72-4.13-5.55l0.49-5.46c0.26-2.83 2.54-4.98 5.07-4.76c2.53 0.22 4.39 2.72 4.13 5.55l-0.49 5.46c-0.26 2.83-2.54 4.98-5.07 4.76z" />
					<path id="&lt;Path&gt;" class="s25" d="m1219.42 785.59c-2.53-0.22-4.39-2.72-4.13-5.55l0.49-5.46c0.26-2.83 2.54-4.98 5.07-4.76c2.53 0.22 4.39 2.72 4.13 5.55l-0.49 5.46c-0.26 2.84-2.54 4.98-5.07 4.76z" />
					<path id="&lt;Path&gt;" class="s25" d="m1195.7 783.54c-2.53-0.22-4.39-2.72-4.13-5.55l0.49-5.46c0.26-2.83 2.54-4.98 5.07-4.76c2.53 0.22 4.39 2.72 4.13 5.55l-0.49 5.46c-0.26 2.83-2.54 4.98-5.07 4.76z" />
					<path id="&lt;Path&gt;" class="s25" d="m1171.97 781.49c-2.53-0.22-4.39-2.72-4.13-5.55l0.49-5.46c0.26-2.83 2.54-4.98 5.07-4.76c2.53 0.22 4.39 2.72 4.13 5.55l-0.49 5.46c-0.26 2.83-2.54 4.98-5.07 4.76z" />
					<path id="&lt;Path&gt;" class="s25" d="m1148.25 779.44c-2.53-0.22-4.39-2.72-4.13-5.55l0.49-5.46c0.26-2.84 2.54-4.98 5.07-4.76c2.53 0.22 4.39 2.72 4.13 5.55l-0.49 5.46c-0.26 2.83-2.54 4.98-5.07 4.76z" />
					<path id="&lt;Path&gt;" class="s25" d="m1125 777.44c-2.53-0.22-4.39-2.72-4.13-5.55l0.49-5.46c0.26-2.83 2.54-4.98 5.07-4.76c2.53 0.22 4.39 2.72 4.13 5.55l-0.49 5.46c-0.26 2.83-2.54 4.98-5.07 4.76z" />
					<path id="&lt;Path&gt;" class="s25" d="m1101.27 775.39c-2.53-0.22-4.39-2.72-4.13-5.55l0.49-5.46c0.26-2.83 2.54-4.98 5.07-4.76c2.53 0.22 4.39 2.72 4.13 5.55l-0.49 5.46c-0.26 2.83-2.54 4.98-5.07 4.76z" />
					<path id="&lt;Path&gt;" class="s25" d="m1077.54 773.34c-2.53-0.22-4.39-2.72-4.13-5.55l0.49-5.46c0.26-2.84 2.54-4.98 5.07-4.76c2.53 0.22 4.39 2.72 4.13 5.55l-0.49 5.46c-0.26 2.83-2.54 4.98-5.07 4.76z" />
					<path id="&lt;Path&gt;" class="s25" d="m1048.15 770.52c-2.53-0.22-4.39-2.72-4.13-5.55l0.49-5.46c0.26-2.83 2.54-4.98 5.07-4.76c2.53 0.22 4.39 2.72 4.13 5.55l-0.49 5.46c-0.26 2.83-2.54 4.98-5.07 4.76z" />
				</g>
				<g id="&lt;Group&gt;">
					<path id="&lt;Path&gt;" class="s25" d="m1596.91 820.95c-2.53-0.22-4.39-2.72-4.13-5.55l0.5-5.46c0.26-2.83 2.54-4.98 5.07-4.76c2.53 0.22 4.39 2.72 4.13 5.55l-0.49 5.46c-0.26 2.83-2.54 4.98-5.07 4.76z" />
					<path id="&lt;Path&gt;" class="s25" d="m1573.19 818.9c-2.53-0.22-4.39-2.72-4.13-5.55l0.49-5.46c0.26-2.83 2.54-4.98 5.07-4.76c2.53 0.22 4.39 2.72 4.13 5.55l-0.49 5.46c-0.26 2.83-2.54 4.98-5.07 4.76z" />
					<path id="&lt;Path&gt;" class="s25" d="m1549.46 816.86c-2.53-0.22-4.39-2.72-4.13-5.55l0.49-5.46c0.26-2.84 2.54-4.98 5.07-4.76c2.53 0.22 4.39 2.72 4.13 5.55l-0.49 5.46c-0.26 2.83-2.54 4.98-5.07 4.76z" />
				</g>
				<path id="&lt;Path&gt;" class="s25" d="m959.35 739.95l-16.17 15.26l-9.65 0.63c0.84-0.53 1.58-1.07 2.2-1.64c0.11-0.1 0.21-0.19 0.33-0.3c1.77-1.61 4.68-4.29 8.87-7.44c2.8-2.1 6.16-4.4 10.15-6.75c0.02-0.01 0.04-0.02 0.06-0.04l4.22 0.27z" />
				<path id="&lt;Path&gt;" class="s25" d="m970.67 742.13l-5.66 17.59l-17.93-3.8l15.79-15.41l7.8 1.63z" />
				<path id="&lt;Path&gt;" class="s25" d="m982.34 743.9l-0.85 11.51l-13.29 3.78l4.17-16.52l9.98 1.23z" />
				<path id="&lt;Path&gt;" class="s25" d="m1271.64 874.75c-6.05-0.77-13.46-37.91 4.79-36.59c8.87 0.64 16.76 5.87 22.53 11.07c5.77 5.2 3.94 17.33-3.03 20.06c-9.27 3.63-20.72 5.91-24.28 5.46z" />
				<path id="&lt;Path&gt;" class="s29" d="m1684.87 797.55c0.73-0.99 68.63-23.37 113.01-13.64l-42.74 26.91l-68.71-5.91c-3.48-1.61-4-4.07-1.56-7.37z" />
				<path id="&lt;Path&gt;" class="s24" d="m1652.09 640.85c-30.3 66.96-48.33 105.53-54.1 115.69c-5.77 10.16-14.96 18.49-27.57 24.98l-0.11 0.04l-120.43 48.93c-100.14-7.9-161.11-13.05-182.9-15.46c0 0 0 0-0.01 0c-2.96-0.33-4.96-0.6-5.79-0.77c-9.93-2.12-14.58-6.72-12.67-10.35c1.91-3.62 232.85-31.32 258.42-34.17c0.24-0.03 0.49-0.06 0.73-0.08c16.59-1.96 25.66-5.76 27.2-11.4l95.28-109.21c1.22-2.02 3.22-3.54 5.52-4.68c4.57-2.27 10.04-3.45 16.42-3.53z" />
				<path id="&lt;Path&gt;" class="s16" d="m1635.67 644.38c-25.64 31.12-96.56 116.95-103.3 122.79c-7.24 6.29-214.48 39.6-265.39 47.87c0 0 0 0-0.01 0c-2.96-0.33-4.96-0.6-5.79-0.77c-9.93-2.12-14.58-6.72-12.67-10.35c1.91-3.62 232.85-31.32 258.42-34.17c17.05-1.9 26.36-5.73 27.93-11.48l95.28-109.21c1.22-2.02 3.22-3.54 5.52-4.68z" />
				<path id="&lt;Path&gt;" class="s24" d="m1652.09 640.85c-30.3 66.96-48.33 105.53-54.1 115.69c-5.77 10.16-14.96 18.49-27.57 24.98l-0.11 0.04c-26.16-0.63-48.21-6.66-62.65-11.89c16.59-1.96 25.66-5.76 27.2-11.4l95.28-109.21c1.22-2.02 3.22-3.54 5.52-4.68c4.57-2.27 10.04-3.45 16.42-3.53z" />
				<path id="&lt;Path&gt;" class="s30" d="m1280.55 829.39l-4.57 50.67c-12.91 4.65-29.45 6.43-49.64 5.35c-18.53-0.99-30.88-5.05-37.67-8.05c-2.87-1.27-4.99-2.4-6.37-3.38l4.79-53.11c1.71-1.45 4.08-2.51 6.97-3.24c15.95-4.09 43.55-0.85 82.77 9.73l3.71 2.05z" />
				<path id="&lt;Path&gt;" class="s31" d="m1194.07 817.62l-5.39 59.74c-2.87-1.27-4.99-2.4-6.37-3.38l4.79-53.11c1.71-1.45 4.08-2.51 6.97-3.24z" />
			</g>
			<g id="&lt;Group&gt;">
				<path id="&lt;Path&gt;" class="s22" d="m880.4 1734.99l-199.5-750.03c-1.42-5.34 3.58-11.35 11.12-13.36l355.82-94.98c7.53-2.01 14.86 0.71 16.28 6.05l199.5 750.03c1.42 5.34-3.58 11.35-11.12 13.36l-355.82 94.98c-7.53 2.01-14.86-0.71-16.28-6.05z" />
				<path id="&lt;Path&gt;" class="s32" d="m880.4 1734.99l-199.5-750.03c-1.42-5.34 3.58-11.35 11.12-13.36l29.25-7.81l204.67 769.45l-29.25 7.81c-7.53 2.01-14.86-0.71-16.28-6.05z" />
				<path id="&lt;Path&gt;" class="s33" d="m955.18 1228.02l-59.89-225.16l45.66-12.19l59.89 225.16l-45.66 12.19z" />
				<path id="&lt;Path&gt;" class="s33" d="m1081.81 1296.31l-85.24-320.48l45.66-12.19l85.24 320.48l-45.66 12.19z" />
				<path id="&lt;Path&gt;" class="s32" d="m1017.4 1141.89l-42.62-160.24l10.18-2.72l42.62 160.24l-10.18 2.72z" />
				<path id="&lt;Path&gt;" class="s32" d="m916.79 1168.75l-42.62-160.24l10.18-2.72l42.62 160.24l-10.18 2.72z" />
				<path id="&lt;Path&gt;" class="s32" d="m805.33 1021.97l16.22 11.46l0.45-0.99c0.42-0.91 1.72-0.88 2.08 0.06l1.16 2.99c0.13 0.34 0.43 0.6 0.78 0.69l12.34 3.01c0.68 0.16 1.05 0.9 0.77 1.54l-0.02 0.04c-0.39 0.91-1.08 1.65-1.95 2.12l-7.78 4.14c-0.36 0.19-0.59 0.57-0.6 0.98l1.31 31.19c-0.01 0.54-0.09 5.13 0.45 5.14c9.56 0.21 34.3 2.01 35.09 2.84c0.24 0.26-0.76 1.58-1.64 2.81c-0.7 0.97-1.66 1.71-2.78 2.13l-13.83 5.19l-1.68 7.31c-0.23 0.99-1.22 1.61-2.21 1.39l-5.28-1.21c-0.99-0.23-1.61-1.22-1.38-2.21l0.33-1.44l-8.86 3.33c-0.43 0.16-0.72 0.57-0.73 1.04l-0.5 23.39c-0.08 3.58-1.75 6.93-4.56 9.15l-0.86 0.68c-1.71 1.35-4.21 1.01-5.49-0.76c-0.62-0.85-1.28-1.78-1.89-2.63c-1.52-2.11-2.25-4.68-2.08-7.28l1.89-29.3c0.02-0.29-0.07-0.57-0.25-0.79l-3.81-4.65c-0.25 0.96-1.23 1.56-2.2 1.33l-5.27-1.21c-0.99-0.23-1.61-1.22-1.38-2.21l1.57-6.81l-29.61-36.1c-0.53-0.64-0.86-1.42-0.95-2.25c-0.19-1.71 1.76-2.82 3.13-1.78c8.58 6.5 29.12 24.59 36.79 29.88c0.71 0.49 4.4 4.13 4.49 3.28l0.93-32.27c0.03-0.27-0.04-0.54-0.19-0.77l-12.64-18.28c-0.06-0.08-0.1-0.17-0.13-0.26l-0.96-2.63c-0.38-1.04 0.81-1.95 1.72-1.31z" />
			</g>
			<g id="&lt;Group&gt;">
				<path id="&lt;Path&gt;" class="s16" d="m1152.42 1828.98h-467.86v-647.43h468.71c17.72 0 32.08 14.36 32.08 32.08v582.42c0 18.19-14.74 32.93-32.93 32.93z" />
				<g id="&lt;Group&gt;">
					<path id="&lt;Compound Path&gt;" fill-rule="evenodd" class="s34" d="m757.93 1263.46v20.28h-9.48v-54.58h20.88c3.17 0 5.99 0.43 8.45 1.29c2.46 0.86 4.54 2.07 6.24 3.62c1.7 1.55 2.99 3.39 3.88 5.51c0.89 2.13 1.33 4.44 1.33 6.94c0 2.65-0.44 5.02-1.33 7.12c-0.89 2.1-2.18 3.87-3.88 5.32c-1.7 1.45-3.78 2.56-6.24 3.34c-2.46 0.78-5.28 1.16-8.45 1.16h-11.4zm0-7.61h11.4c1.82 0 3.39-0.22 4.71-0.67c1.31-0.45 2.39-1.09 3.24-1.91c0.85-0.83 1.47-1.81 1.86-2.94c0.39-1.14 0.58-2.38 0.58-3.73c0-1.27-0.19-2.5-0.58-3.67c-0.39-1.17-1.01-2.22-1.86-3.13c-0.85-0.91-1.93-1.64-3.24-2.17c-1.31-0.54-2.88-0.81-4.71-0.81h-11.4v19.04z" />
					<path id="&lt;Compound Path&gt;" fill-rule="evenodd" class="s34" d="m821.4 1271.03h-21.14l-4.42 12.71h-9.86l20.62-54.58h8.51l20.65 54.58h-9.9l-4.46-12.71zm-18.48-7.65h15.82l-7.91-22.64l-7.91 22.64z" />
					<path id="&lt;Compound Path&gt;" class="s34" d="m870.47 1269.68c0-1.1-0.16-2.08-0.49-2.94c-0.33-0.86-0.92-1.66-1.78-2.38c-0.86-0.72-2.05-1.42-3.56-2.08c-1.51-0.66-3.46-1.36-5.83-2.08c-2.6-0.77-5-1.66-7.2-2.66c-2.2-1-4.09-2.16-5.68-3.49c-1.59-1.32-2.83-2.85-3.73-4.57c-0.9-1.72-1.35-3.7-1.35-5.92c0-2.2 0.47-4.22 1.41-6.07c0.94-1.85 2.25-3.45 3.95-4.8c1.7-1.35 3.74-2.4 6.11-3.15c2.37-0.75 5-1.13 7.87-1.13c3.07 0 5.84 0.44 8.28 1.33c2.45 0.89 4.52 2.09 6.2 3.62c1.69 1.52 2.98 3.29 3.88 5.3c0.9 2.01 1.35 4.16 1.35 6.43h-9.45c0-1.33-0.21-2.54-0.62-3.66c-0.41-1.11-1.04-2.07-1.89-2.89c-0.85-0.81-1.92-1.44-3.22-1.89c-1.3-0.45-2.84-0.67-4.61-0.67c-1.67 0-3.12 0.19-4.35 0.56c-1.22 0.37-2.24 0.9-3.06 1.57c-0.81 0.67-1.41 1.47-1.8 2.4c-0.39 0.92-0.58 1.92-0.58 3c0 2.02 0.96 3.71 2.87 5.06c1.91 1.35 4.83 2.6 8.75 3.75c3.07 0.9 5.74 1.9 7.98 3c2.25 1.1 4.12 2.34 5.6 3.73c1.49 1.39 2.59 2.95 3.32 4.69c0.72 1.74 1.09 3.69 1.09 5.87c0 2.3-0.46 4.37-1.37 6.2c-0.91 1.84-2.21 3.4-3.9 4.69c-1.69 1.29-3.73 2.27-6.13 2.96c-2.4 0.69-5.07 1.03-8.02 1.03c-2.62 0-5.21-0.36-7.76-1.07c-2.55-0.71-4.84-1.79-6.86-3.22c-2.02-1.44-3.65-3.23-4.89-5.38c-1.24-2.15-1.86-4.67-1.86-7.57h9.48c0 1.72 0.31 3.21 0.92 4.44c0.61 1.24 1.45 2.25 2.51 3.04c1.06 0.79 2.32 1.36 3.77 1.72c1.45 0.36 3.01 0.54 4.69 0.54c3.3 0 5.78-0.67 7.44-2.01c1.66-1.34 2.49-3.11 2.49-5.3z" />
					<path id="&lt;Compound Path&gt;" class="s34" d="m916.8 1269.68c0-1.1-0.16-2.08-0.49-2.94c-0.32-0.86-0.92-1.66-1.78-2.38c-0.86-0.72-2.05-1.42-3.56-2.08c-1.51-0.66-3.46-1.36-5.83-2.08c-2.6-0.77-5-1.66-7.2-2.66c-2.2-1-4.09-2.16-5.68-3.49c-1.59-1.32-2.83-2.85-3.73-4.57c-0.9-1.72-1.35-3.7-1.35-5.92c0-2.2 0.47-4.22 1.41-6.07c0.94-1.85 2.25-3.45 3.96-4.8c1.7-1.35 3.74-2.4 6.11-3.15c2.37-0.75 5-1.13 7.87-1.13c3.07 0 5.84 0.44 8.28 1.33c2.45 0.89 4.52 2.09 6.2 3.62c1.69 1.52 2.98 3.29 3.88 5.3c0.9 2.01 1.35 4.16 1.35 6.43h-9.45c0-1.33-0.21-2.54-0.62-3.66c-0.41-1.11-1.04-2.07-1.89-2.89c-0.85-0.81-1.92-1.44-3.22-1.89c-1.3-0.45-2.84-0.67-4.61-0.67c-1.67 0-3.12 0.19-4.35 0.56c-1.23 0.37-2.24 0.9-3.06 1.57c-0.81 0.67-1.41 1.47-1.8 2.4c-0.39 0.92-0.58 1.92-0.58 3c0 2.02 0.96 3.71 2.87 5.06c1.91 1.35 4.83 2.6 8.75 3.75c3.07 0.9 5.74 1.9 7.98 3c2.25 1.1 4.12 2.34 5.6 3.73c1.49 1.39 2.59 2.95 3.32 4.69c0.72 1.74 1.09 3.69 1.09 5.87c0 2.3-0.46 4.37-1.37 6.2c-0.91 1.84-2.21 3.4-3.9 4.69c-1.69 1.29-3.73 2.27-6.13 2.96c-2.4 0.69-5.07 1.03-8.02 1.03c-2.62 0-5.21-0.36-7.76-1.07c-2.55-0.71-4.84-1.79-6.86-3.22c-2.02-1.44-3.65-3.23-4.89-5.38c-1.24-2.15-1.86-4.67-1.86-7.57h9.48c0 1.72 0.31 3.21 0.92 4.44c0.61 1.24 1.45 2.25 2.51 3.04c1.06 0.79 2.32 1.36 3.77 1.72c1.45 0.36 3.01 0.54 4.69 0.54c3.3 0 5.78-0.67 7.44-2.01c1.66-1.34 2.49-3.11 2.49-5.3z" />
					<path id="&lt;Compound Path&gt;" fill-rule="evenodd" class="s34" d="m944.09 1263.46v20.28h-9.48v-54.58h20.88c3.17 0 5.99 0.43 8.45 1.29c2.46 0.86 4.54 2.07 6.24 3.62c1.7 1.55 2.99 3.39 3.88 5.51c0.89 2.13 1.33 4.44 1.33 6.94c0 2.65-0.44 5.02-1.33 7.12c-0.89 2.1-2.18 3.87-3.88 5.32c-1.7 1.45-3.78 2.56-6.24 3.34c-2.46 0.78-5.28 1.16-8.45 1.16h-11.4zm0-7.61h11.4c1.82 0 3.39-0.22 4.7-0.67c1.31-0.45 2.39-1.09 3.24-1.91c0.85-0.83 1.47-1.81 1.86-2.94c0.39-1.14 0.58-2.38 0.58-3.73c0-1.27-0.19-2.5-0.58-3.67c-0.39-1.17-1.01-2.22-1.86-3.13c-0.85-0.91-1.93-1.64-3.24-2.17c-1.31-0.54-2.88-0.81-4.7-0.81h-11.4v19.04z" />
					<path id="&lt;Compound Path&gt;" fill-rule="evenodd" class="s34" d="m1027.24 1257.87c0 4.15-0.54 7.87-1.63 11.15c-1.09 3.29-2.62 6.07-4.59 8.36c-1.97 2.29-4.35 4.04-7.12 5.27c-2.77 1.22-5.85 1.84-9.22 1.84c-3.35 0-6.41-0.61-9.18-1.84c-2.77-1.22-5.17-2.98-7.18-5.27c-2.01-2.29-3.57-5.07-4.69-8.36c-1.11-3.29-1.67-7-1.67-11.15v-2.77c0-4.15 0.56-7.87 1.67-11.17c1.11-3.3 2.66-6.1 4.65-8.4c1.99-2.3 4.37-4.06 7.14-5.29c2.77-1.22 5.84-1.84 9.18-1.84c3.37 0 6.45 0.61 9.24 1.84c2.79 1.22 5.17 2.99 7.16 5.29c1.99 2.3 3.52 5.1 4.61 8.4c1.09 3.3 1.63 7.02 1.63 11.17v2.77zm-9.48-2.85c0-3.05-0.29-5.74-0.88-8.08c-0.59-2.34-1.44-4.29-2.57-5.87c-1.12-1.58-2.51-2.77-4.14-3.58c-1.64-0.81-3.49-1.22-5.57-1.22c-2.02 0-3.85 0.41-5.47 1.22c-1.62 0.81-3.01 2-4.14 3.58c-1.14 1.57-2.01 3.53-2.62 5.87c-0.61 2.34-0.92 5.03-0.92 8.08v2.85c0 3.05 0.31 5.75 0.92 8.1c0.61 2.35 1.49 4.32 2.64 5.9c1.15 1.59 2.54 2.79 4.18 3.6c1.64 0.81 3.47 1.22 5.49 1.22c4.2 0 7.43-1.6 9.69-4.8c2.26-3.2 3.39-7.87 3.39-14.02v-2.85z" />
					<path id="&lt;Compound Path&gt;" fill-rule="evenodd" class="s34" d="m1056.74 1262.71h-10.57v21.03h-9.48v-54.58h19.19c3.12 0 5.91 0.36 8.36 1.07c2.45 0.71 4.52 1.76 6.2 3.15c1.69 1.39 2.97 3.11 3.84 5.16c0.87 2.05 1.31 4.42 1.31 7.12c0 3.65-0.88 6.71-2.64 9.17c-1.76 2.46-4.22 4.35-7.37 5.68l12.26 22.75v0.49h-10.16l-10.95-21.03zm-10.57-7.61h9.75c1.7 0 3.19-0.22 4.46-0.67c1.27-0.45 2.34-1.07 3.19-1.87c0.85-0.8 1.49-1.75 1.91-2.85c0.42-1.1 0.64-2.31 0.64-3.64c0-1.4-0.2-2.67-0.6-3.8c-0.4-1.14-1.01-2.11-1.84-2.92c-0.83-0.81-1.88-1.44-3.17-1.88c-1.29-0.44-2.83-0.66-4.63-0.66h-9.71v18.29z" />
					<path id="&lt;Compound Path&gt;" class="s34" d="m1122.15 1236.8h-17.02v46.93h-9.41v-46.93h-16.87v-7.65h43.3v7.65z" />
				</g>
				<g id="&lt;Group&gt;">
					<path id="&lt;Path&gt;" class="s34" d="m972.93 1759.5h-75.26c-2.42 0-4.39-1.97-4.39-4.39c0-2.42 1.96-4.39 4.39-4.39h75.26c2.42 0 4.39 1.96 4.39 4.39c0 2.42-1.96 4.39-4.39 4.39z" />
					<path id="&lt;Path&gt;" class="s34" d="m1026.55 1780.43h-182.51c-2.42 0-4.39-1.96-4.39-4.39c0-2.42 1.96-4.39 4.39-4.39h182.51c2.42 0 4.39 1.96 4.39 4.39c0 2.42-1.96 4.39-4.39 4.39z" />
				</g>
				<g id="&lt;Group&gt;">
					<path id="&lt;Compound Path&gt;" fill-rule="evenodd" class="s34" d="m935.3 1695.55c-47.68 0-92.51-18.57-126.23-52.29c-33.72-33.71-52.28-78.54-52.28-126.23c0-47.68 18.57-92.51 52.28-126.23c33.72-33.72 78.54-52.28 126.23-52.28c47.68 0 92.51 18.57 126.23 52.28c33.72 33.72 52.28 78.54 52.28 126.23c0 47.68-18.57 92.51-52.28 126.23c-33.72 33.72-78.54 52.29-126.23 52.29zm0-355.06c-47.16 0-91.49 18.36-124.84 51.71c-33.35 33.35-51.71 77.68-51.71 124.84c0 47.16 18.36 91.49 51.71 124.84c33.35 33.35 77.68 51.71 124.84 51.71c47.16 0 91.49-18.36 124.84-51.71c33.34-33.35 51.71-77.68 51.71-124.84c0-47.16-18.36-91.49-51.71-124.84c-33.35-33.35-77.68-51.71-124.84-51.71z" />
				</g>
				<path id="&lt;Path&gt;" class="s34" d="m1078.43 1517.04c0 8.8-0.79 17.41-2.31 25.78c-3.66 20.08-11.5 38.69-22.59 54.91c-25.77 37.7-69.11 62.44-118.23 62.44c-58.42 0-108.67-35-130.91-85.19c-2.93-6.61-5.38-13.49-7.29-20.58c-3.22-11.91-4.93-24.44-4.93-37.36c0-10.45 1.12-20.65 3.25-30.46c0.02-0.11 0.05-0.22 0.07-0.34c5.95-27.13 19.59-51.37 38.53-70.33c5.37-5.38 11.17-10.34 17.34-14.81c2.94-2.13 5.98-4.16 9.08-6.07c21.78-13.4 47.42-21.13 74.87-21.13c3.64 0 7.25 0.13 10.82 0.41c5.04 0.37 10 1.01 14.88 1.89c20.53 3.72 39.53 11.82 56.01 23.3h0.01c10.27 7.15 19.55 15.6 27.61 25.13c4.23 5.01 8.13 10.3 11.65 15.87c2.19 3.46 4.24 7.02 6.14 10.67c4.56 8.78 8.23 18.1 10.91 27.83c3.33 12.11 5.11 24.87 5.11 38.03z" />
				<g id="&lt;Group&gt;">
					<path id="&lt;Path&gt;" class="s35" d="m886.67 1452.97c-5.71 9.05 2.38 24.75-14.75 20.47c-17.14-4.28-27.61-6.19-28.56 3.33c-0.96 9.52 12.85 9.52 12.85 19.52c0 10-6.19 13.3-15.71 8.55c-9.52-4.75-12.26-11.65-23.33-7.37c-11.07 4.28-17.49 1.43-19.99-7.14c-0.44-1.51-1.06-2.73-1.78-3.75c0.02-0.11 0.05-0.22 0.07-0.34c5.95-27.13 19.59-51.37 38.53-70.33c5.37-5.38 11.17-10.34 17.34-14.81c2.94-2.13 5.98-4.16 9.08-6.07c4.46 0.16 9.8 1.86 14.34 7.48c10 12.38 16.66 6.19 14.28 20.47c-2.38 14.28 1.43 16.19 9.52 15.71c8.09-0.48 17.61-0.48 18.56 5.71c0.95 6.19-24.75-0.48-30.47 8.57z" />
					<path id="&lt;Path&gt;" class="s35" d="m959.97 1546.02c-6.9 9.04-2.38 16.66-9.04 26.18c-6.66 9.52-15.23-1.19-19.52 2.62c-4.28 3.81 6.9 12.85 6.19 18.8c-0.71 5.95-9.4 5.95-11.54 14.52c-2.14 8.57-7.5 4.64-10.71 10.35c-3.21 5.71 6.78 13.21 5 18.92c-1.79 5.71-13.57 2.86-19.63-5.71c-6.07-8.57-3.57-9.28-7.14-21.42c-3.57-12.14 3.57-18.21 8.21-26.06c4.64-7.85-5.36-5.35-10.71-11.07c-5.36-5.71-1.07-8.92-3.57-16.42c-2.5-7.5-14.87-9.28-15.11-20.71c-0.24-11.42 7.38-8.57 15.71-14.75c8.33-6.19 4.76-9.04 11.9-10c7.14-0.95 8.09 6.66 19.28 9.28c11.19 2.62 7.38 4.52 10.71 13.33c2.22 5.87 7.54 7.46 15.95 4.76c4.76-5.24 20.94-1.67 14.04 7.38z" />
					<path id="&lt;Path&gt;" class="s35" d="m1078.43 1517.04c0 8.8-0.79 17.41-2.31 25.78c-3.66 20.08-11.5 38.69-22.59 54.91c-3.78 1.24-7.65 1.21-11.44-0.31c-17.85-7.14-4.64-26.42 2.5-36.06c7.14-9.64-11.07-5.35-24.27-14.28c-13.21-8.92 1.43-32.84-12.14-28.92c-13.57 3.93-29.99 8.92-37.84-4.28c-7.85-13.21 7.14-15.35 0.36-26.42c-6.78-11.07 3.93-17.49 17.49-18.56c13.57-1.07 11.78-10.71 28.56-12.14c16.78-1.43 16.42 19.99 34.98 18.56c12.38-0.95 18.28 0 17.73 2.86c1.34-0.04 2.63 0.24 3.88 0.81c3.33 12.11 5.11 24.87 5.11 38.03z" />
					<path id="&lt;Path&gt;" class="s35" d="m1062.42 1451.18c-15.44 7.51-21.63-12.92-34.83-6.78c-13.3 6.19-10.97-5.71-21.44-13.33c-10.47-7.61-31.42 6.19-30.47-5.71c0.95-11.89 16.66-8.57 19.99-18.09c2.22-6.35 8.41-8.72 18.56-7.14c0.86-0.33 1.79-0.54 2.77-0.63c0 0 0 0 0.01 0c10.27 7.15 19.55 15.6 27.61 25.13c4.23 5.01 8.13 10.3 11.65 15.87c2.19 3.46 4.24 7.02 6.14 10.67z" />
					<path id="&lt;Path&gt;" class="s35" d="m918.92 1426.15c-6.78 8.64-12.85-7.57-20.35-16.02c-7.5-8.45-3.57-16.18 6.43-15.12c10 1.06 9.76-3.44 22.61 0c8.57 2.3 10.15 7.34 4.76 15.12c-7.97 0.83-6.66 7.38-13.45 16.02z" />
				</g>
			</g>
		</g>
	</g>
</svg>