{
  "users": [
    {
      "id": 1,
      "name": "Phung Van Hung",
      "password": "hung+hash",
      "email": "hung@gmail.com",
      "phone": "0964911301",
      "image": "hung.jpg",
      "address": "ha noi",
      "set_history": ""
    }
  ],
  "trip_rates": [
    {
      "id": 1,
      "start_time": "10/10/2021 10:00",
      "end_time": "10/10/2021 10:00",
      "pick_up_location": "ha noi",
      "price": "100000",
      "drop_off_location": "ha noi",
      "car_id": 1,
      "user_id": 1,
      "custommer_id": 1,
      "location_id": 1
    }
  ],
  "location": [
    {
      "id": 1,
      "name": "ha noi"
    }
  ],
  "custommer": [
    {
      "id": 1,
      "name": "hung khach hang",
      "password": "hung+hash",
      "address": "ha noi",
      "phone": "0964911301",
      "avatar": "hung.jpg",
      "status": 1,
      "contact": ""
    }
  ],
  "cars": [
    {
      "id": 1,
      "name": "xe limosexin",
      "avatar": "hung.jpg",
      "color": "red",
      "plate_number": "1234-HN",
      "seats": 10,
      "description": "mo ta",
      "phone": "0964911301",
      "status": 1
    }
  ],
  "car_images": [
    {
      "id": 1,
      "car_id": 1,
      "image": "hung.jpg,hung1.jpg,hung2.jpg",
      "detail": ""
    }
  ]
}
