{
  "compilerOptions": {
    "baseUrl": "./",
    "paths": {
      "atoms": ["./src/features/atoms"],
      "config": ["./src/config"],
      "organisms": ["./src/features/organisms"],
      "molecules": ["./src/features/molecules"],
      "assets": ["./src/assets"],
      "pages": ["./src/features/pages/*"],
      "hooks": ["./src/core/hooks"],
      "redux": ["./src/redux"]
    }
  },
  "exclude": ["node_modules"]
}
